Customer Id,Location,Category,Product Type,Product Warranty(months),Extended Warranty Service,Gender,Year of Purchase,price in dollars,Age,service done in warranty period,service done outside warranty period,Rating,Service Purchased,Price of Service,Issue
15725737,WPR,Laptop,15 r inspiron ,36,24,Male,2015,1700,23,4,2,4,Battery Replacement,800,overheating
15736816,AMR-S,Laptop,15 r inspiron ,12,12,Male,2014,1328,89,2,2,5,Pro Suport Plus,700,accidental damage repair
15728693,EMR-M,Laptop,15 r inspiron ,12,0,Female,2017,1307,56,5,0,3,Extended Maintenance,500,Warranty Experied
15589475,SAR,Laptop,15 r inspiron ,12,24,Female,2018,1590,45,4,3,5,Premium Support,1500,Virus and malware
15750181,SAR,Laptop,15 r inspiron ,12,12,Male,2014,1475,25,1,0,5,Accidental Damage,1200,spills
15788448,AMR-N,Laptop,Inspiron 14 3421    ,12,12,Male,2017,1282,23,1,1,3,Accidental Damage,1200,spills
15738148,EMR,Laptop,Latitude 5480,12,0,Female,2018,1304,45,0,1,5,Accidental Damage,1200,spills
15687946,EMR-M,Laptop,Latitude 5490,12,12,Female,2014,1546,34,3,0,4,Accidental Damage,1200,spills
15754849,WPR,Laptop,Alienware 15,12,24,Female,2014,1800,21,2,2,5,Accidental Damage,1200,spills
15588670,WPR,Laptop,Alienware 15,12,24,Female,2014,1850,30,2,2,5,Accidental Damage,1200,spills
15762418,WPR,Laptop,Alienware 17,12,36,Male,2018,1750,20,2,3,3,Accidental Damage,1200,spills
15705512,WPR,Laptop,15 r inspiron ,36,24,Female,2014,2200,34,4,2,5,Accidental Damage,1200,spills
15591607,WPR,Laptop,Inspiron 14 3421    ,12,24,Male,2018,1600,31,2,3,5,Accidental Damage,1200,spills
15712543,AFR,Laptop,Latitude 5480,12,24,Male,2014,1453,31,0,3,5,Accidental Damage,1200,spills
15584518,AMR-N,Laptop,Latitude 5490,12,12,Female,2015,1595,30,3,0,3,Accidental Damage,1200,spills
15594408,EUR,Laptop,Alienware 15,12,0,Female,2015,1800,26,1,3,4,Accidental Damage,1200,surges
15724944,SAR,Laptop,Alienware 17,12,36,Male,2016,1425,23,5,1,3,Accidental Damage,1200,surges
15701164,WPR,Laptop,Alienware 15,12,24,Female,2015,3050,27,0,3,5,Accidental Damage,1200,surges
15679200,WPR,Laptop,Alienware 17,12,36,Male,2016,2800,24,2,2,5,Accidental Damage,1200,surges
15568748,AMR-S,Laptop,15 r inspiron ,36,24,Male,2014,2415,89,5,0,5,Accidental Damage,1200,surges
15764866,EMR-M,Laptop,Inspiron 14 3421    ,12,24,Female,2015,2596,23,0,3,4,Accidental Damage,1200,surges
15813844,EMR-M,Laptop,Latitude 5480,12,24,Male,2015,2826,45,4,2,4,Accidental Damage,1200,surges
15596175,EUR,Laptop,Latitude 5490,12,12,Male,2017,2713,34,3,2,3,Accidental Damage,1200,surges
15771086,WPR,Laptop,Alienware 15,12,24,Female,2015,3050,22,0,0,3,Accidental Damage,1200,surges
15772423,AFR,Laptop,Alienware 17,12,36,Male,2015,2700,27,0,1,5,Accidental Damage,1200,drops
15718779,EMR,Laptop,Alienware 15,12,36,Male,2014,2500,22,0,2,3,Accidental Damage,1200,drops
15699389,EMR-M,Laptop,Alienware 17,12,36,Male,2015,2750,30,2,3,3,Accidental Damage,1200,drops
15797960,EUR,Laptop,15 r inspiron ,36,24,Female,2016,2832,33,5,1,4,Accidental Damage,1200,drops
15601848,SAR,Laptop,Inspiron 14 3421    ,12,12,Male,2014,2612,29,4,2,5,Accidental Damage,1200,drops
15601274,AFR,Laptop,Latitude 5480,12,0,Female,2015,2592,20,0,0,5,Accidental Damage,1200,drops
15702669,AMR-N,Laptop,Latitude 5490,12,12,Male,2014,2804,30,4,1,5,Accidental Damage,1200,drops
15697441,AMR-N,Laptop,Alienware 15,12,24,Male,2016,2600,22,4,0,5,Accidental Damage,1200,drops
15636624,EMR-M,Laptop,Alienware 17,12,36,Female,2015,2750,22,3,1,5,Accidental Damage,1200,drops
15688074,AMR-S,Laptop,Alienware 15,12,24,Male,2017,3150,25,3,0,3,Accidental Damage,1200,drops
15583456,SAR,Laptop,Alienware 17,12,36,Male,2014,2600,23,3,2,5,Accidental Damage,1200,drops
15810432,EUR,Laptop,15 r inspiron ,36,24,Male,2015,2888,28,3,1,4,Accidental Damage,1200,spills
15705521,EUR,Laptop,15 r inspiron ,36,48,Female,2016,2787,22,5,2,4,Accidental Damage,1200,spills
15803406,EUR,Laptop,Inspiron 14 3421    ,12,12,Female,2018,2795,26,1,0,5,Accidental Damage,1200,spills
15794396,WPR,Laptop,Latitude 5480,12,0,Female,2016,2790,31,0,3,5,Accidental Damage,1200,spills
15785798,AFR,Laptop,Latitude 5490,12,36,Male,2014,2621,30,4,0,5,Accidental Damage,1200,spills
15726631,SAR,Laptop,Alienware 15,12,24,Female,2015,3050,21,2,3,4,Accidental Damage,1200,spills
15634632,EUR,Laptop,Alienware 17,12,36,Male,2015,2725,29,2,3,5,Accidental Damage,1200,spills
15624170,AMR-N,Laptop,Alienware 15,12,24,Female,2017,2650,21,0,1,5,Accidental Damage,1200,spills
15804256,EMR-M,Laptop,Alienware 17,12,36,Male,2015,2750,30,4,0,4,Accidental Damage,1200,spills
15786063,AMR-S,Laptop,Inspiron 14 3421    ,12,12,Female,2017,2419,34,0,1,5,Accidental Damage,1200,surges
15736112,SEAR,Laptop,Latitude 5480,12,0,Female,2015,2834,34,5,3,4,Accidental Damage,1200,surges
15749851,WPR,Laptop,Latitude 5490,12,36,Female,2014,2523,56,4,0,5,Accidental Damage,1200,surges
15567832,EMR-M,Laptop,Alienware 15,12,24,Female,2017,3100,26,3,2,5,Accidental Damage,1200,surges
15739803,SEAR,Laptop,Alienware 17,12,36,Male,2018,2950,25,2,1,5,Accidental Damage,1200,surges
15800440,EMR,Laptop,Inspiron 14 3421    ,12,12,Male,2015,2426,34,5,1,5,Accidental Damage,1200,surges
15651674,SAR,Laptop,Latitude 5480,12,0,Female,2016,2759,55,4,2,4,Accidental Damage,1200,surges
15689614,WPR,Laptop,Latitude 5490,12,36,Female,2017,2605,50,0,0,5,Accidental Damage,1200,surges
15728505,WPR,Laptop,Latitude 5480,12,0,Male,2015,2530,28,1,2,3,Accidental Damage,1200,surges
15730076,AFR,Laptop,Latitude 5490,12,36,Male,2014,2678,30,0,0,5,Accidental Damage,1200,surges
15644753,AFR,Laptop,Alienware 15,12,24,Male,2014,2950,26,5,0,4,Accidental Damage,1200,drops
15633922,EMR,Laptop,Alienware 17,12,36,Male,2014,2625,30,1,1,5,Premium Support,1500,Virus and malware
15788291,EMR,Laptop,Latitude 5480,12,24,Female,2015,2743,20,0,1,3,Premium Support,1500,Virus and malware
15604044,EMR-M,Laptop,Latitude 5490,12,12,Male,2014,2607,33,2,1,3,Premium Support,1500,Virus and malware
15603925,EMR-M,Laptop,Alienware 15,12,0,Female,2017,3100,30,5,2,4,Premium Support,1500,Virus and malware
15567446,WPR,Laptop,Alienware 17,12,36,Male,2015,2775,20,2,2,4,Premium Support,1500,Virus and malware
15738181,SAR,Laptop,Alienware 15,12,24,Male,2014,3000,26,5,3,5,Premium Support,1500,Virus and malware
15583725,AMR-S,Laptop,Alienware 17,12,36,Male,2018,2950,25,5,3,5,Premium Support,1500,Virus and malware
15575024,AMR-N,Laptop,Inspiron 14 3421    ,12,12,Male,2018,2855,30,0,1,5,Premium Support,1500,Virus and malware
15721024,WPR,Laptop,Latitude 5480,12,0,Male,2014,2434,34,4,2,5,Premium Support,1500,data backup
15745621,SAR,Laptop,Latitude 5490,12,36,Female,2015,2800,29,0,1,5,Premium Support,1500,data backup
15607040,AFR,Laptop,Alienware 15,12,24,Female,2015,3000,29,2,3,4,Premium Support,1500,data backup
15668886,AFR,Laptop,Alienware 17,12,36,Female,2016,2635,25,4,1,4,Premium Support,1500,data backup
15661036,AMR-N,Laptop,15 r inspiron ,36,48,Male,2017,2709,34,3,1,5,Premium Support,1500,data backup
15634245,SAR,Laptop,Inspiron 14 3421    ,12,12,Female,2016,2602,57,4,3,3,Premium Support,1500,data backup
15637979,EMR,Laptop,Latitude 5480,12,0,Female,2016,2737,23,0,0,3,Premium Support,1500,data backup
15815364,EMR-M,Laptop,Latitude 5490,12,36,Female,2018,2496,34,3,0,4,Premium Support,1500,data backup
15583212,EMR-M,Laptop,Alienware 15,12,24,Female,2015,3000,21,3,1,3,Premium Support,1500,data backup
15622750,WPR,Laptop,Alienware 17,12,36,Female,2017,2800,25,0,1,5,Premium Support,1500,hardware/software issues
15756026,WPR,Laptop,15 r inspiron ,36,48,Female,2018,2459,34,5,1,4,Premium Support,1500,hardware/software issues
15591969,EMR-M,Laptop,Inspiron 14 3421    ,12,12,Male,2015,2854,89,2,1,5,Premium Support,1500,hardware/software issues
15757811,SEAR,Laptop,Latitude 5480,12,0,Female,2017,2757,45,4,0,5,Premium Support,1500,hardware/software issues
15585036,AFR,Laptop,Inspiron 14 3421    ,12,12,Female,2016,2540,31,5,1,4,Premium Support,1500,hardware/software issues
15589488,AMR-N,Laptop,Inspiron 14 3421    ,12,48,Female,2017,2880,32,1,1,3,Premium Support,1500,hardware/software issues
15737792,AFR,Laptop,Latitude 5480,12,0,Female,2016,2747,40,2,3,5,Premium Support,1500,hardware/software issues
15599433,WPR,Laptop,Latitude 5490,12,36,Male,2016,2660,55,3,3,4,Premium Support,1500,hardware/software issues
15672012,AMR-S,Laptop,Latitude 5490,12,48,Female,2016,2720,50,3,0,5,Premium Support,1500,hardware/software issues
15592222,EMR-M,Laptop,Alienware 15,12,24,Male,2016,3060,27,2,2,5,Premium Support,1500,hardware/software issues
15608968,EUR,Laptop,Latitude 5480,12,36,Male,2016,2637,28,3,1,5,Premium Support,1500,hardware/software issues
15646558,SEAR,Laptop,Alienware 17,12,36,Male,2017,2825,26,2,2,5,Premium Support,1500,hardware/software issues
15768104,SAR,Laptop,15 r inspiron ,36,48,Male,2015,2836,57,5,3,3,Premium Support,1500,hardware/software issues
15792388,SAR,Laptop,Inspiron 14 3421    ,12,12,Female,2018,2438,45,4,0,5,Premium Support,1500,hardware/software issues
15724848,WPR,Laptop,Latitude 5480,12,0,Female,2014,2738,23,5,3,4,Premium Support,1500,data backup
15754713,SAR,Laptop,Latitude 5490,12,12,Male,2018,2576,45,5,1,4,Premium Support,1500,data backup
15746490,SEAR,Laptop,Alienware 15,12,24,Female,2014,2900,20,1,0,3,Premium Support,1500,data backup
15710404,SAR,Laptop,Alienware 17,12,36,Male,2015,2800,25,1,2,4,Premium Support,1500,data backup
15620981,AFR,Laptop,Alienware 15,12,24,Female,2017,3040,20,1,3,4,Premium Support,1500,data backup
15606149,EMR,Laptop,Alienware 17,12,36,Female,2015,2750,21,3,1,5,Premium Support,1500,data backup
15745527,EMR,Laptop,15 r inspiron ,36,24,Male,2018,2589,31,1,0,5,Premium Support,1500,data backup
15623521,WPR,Laptop,15 r inspiron ,36,24,Male,2018,2418,27,4,3,5,Premium Support,1500,data backup
15810218,SAR,Laptop,15 r inspiron ,36,12,Male,2018,2645,20,3,0,4,Premium Support,1500,data backup
15569050,AMR-S,Laptop,15 r inspiron ,36,48,Male,2015,2539,20,3,3,5,Premium Support,1500,data backup
15717164,SAR,Laptop,Inspiron 14 3421    ,12,12,Male,2014,2746,36,1,1,5,Premium Support,1500,data backup
15765014,SEAR,Laptop,Inspiron 14 3421    ,12,48,Female,2015,2497,37,2,2,5,Premium Support,1500,data backup
15767864,AMR-N,Laptop,Latitude 5480,12,0,Male,2015,2574,27,3,3,5,Premium Support,1500,Onsite support needed
15769948,AMR-S,Laptop,Latitude 5490,12,36,Male,2017,2610,26,4,2,3,Premium Support,1500,Onsite support needed
15686345,EMR-M,Laptop,Inspiron 14 3421    ,12,48,Male,2018,2531,28,3,1,4,Premium Support,1500,Onsite support needed
15681174,SAR,Laptop,Alienware 15,12,24,Male,2015,3050,25,5,2,4,Premium Support,1500,Onsite support needed
15695475,SEAR,Laptop,Alienware 17,12,36,Male,2018,2950,29,0,2,5,Premium Support,1500,Onsite support needed
15680303,AMR-N,Laptop,15 r inspiron ,36,48,Male,2016,2664,89,1,2,3,Premium Support,1500,Onsite support needed
15633650,SAR,Laptop,Inspiron 14 3421    ,12,12,Female,2014,2509,28,2,1,3,Premium Support,1500,Onsite support needed
15589195,SAR,Laptop,Inspiron 14 3421    ,12,12,Female,2015,2641,29,2,0,5,Premium Support,1500,Onsite support needed
15646513,AMR-N,Laptop,Latitude 5480,12,0,Male,2018,2597,30,0,3,4,Premium Support,1500,Onsite support needed
15708063,AMR-N,Laptop,Latitude 5490,12,12,Male,2014,2629,40,0,1,4,Premium Support,1500,Onsite support needed
15696098,AMR-S,Laptop,Inspiron 14 3421    ,12,0,Female,2018,2709,23,0,0,5,Premium Support,1500,Onsite support needed
15649744,EUR,Laptop,Alienware 15,12,24,Female,2017,2900,28,1,0,5,Premium Support,1500,Onsite support needed
15604304,EUR,Laptop,Inspiron 14 3421    ,12,36,Female,2016,2882,56,5,0,5,Premium Support,1500,Onsite support needed
15585198,SEAR,Laptop,Alienware 17,12,36,Male,2016,2635,21,4,2,3,Premium Support,1500,Onsite support needed
15624347,WPR,Laptop,Alienware 17,12,12,Male,2017,2830,20,1,0,5,Premium Support,1500,Onsite support needed
15621687,EUR,Laptop,Alienware 17,12,24,Male,2015,2725,28,5,3,5,Premium Support,1500,Onsite support needed
15647301,SAR,Laptop,Alienware 15,12,24,Female,2014,3000,30,2,0,3,Premium Support,1500,Onsite support needed
15628205,EUR,Laptop,Alienware 17,12,36,Female,2015,2725,29,1,0,4,Premium Support,1500,Onsite support needed
15685500,WPR,Laptop,Alienware 15,12,0,Male,2015,3050,29,5,2,4,Premium Support,1500,Onsite support needed
15651369,WPR,Laptop,Alienware 17,12,24,Male,2017,2830,21,2,2,5,Premium Support,1500,Onsite support needed
15625080,EUR,Laptop,15 r inspiron ,36,24,Female,2014,2454,36,3,2,3,Premium Support,1500,Onsite support needed
15575410,WPR,Laptop,15 r inspiron ,36,48,Female,2015,2667,27,2,2,5,Premium Support,1500,Onsite support needed
15721189,SEAR,Laptop,Inspiron 14 3421    ,12,12,Female,2018,2589,27,0,1,5,Premium Support,1500,Onsite support needed
15814930,WPR,Laptop,Latitude 5480,12,0,Female,2016,2784,22,0,3,5,Premium Support,1500,Onsite support needed
15658306,EMR-M,Laptop,Latitude 5490,12,36,Male,2017,2848,23,1,1,5,Premium Support,1500,Onsite support needed
15615032,SEAR,Laptop,Alienware 15,12,24,Male,2015,2950,22,3,2,5,Premium Support,1500,Onsite support needed
15740494,SEAR,Laptop,Alienware 17,12,36,Female,2018,2950,30,1,0,3,Premium Support,1500,Onsite support needed
15687752,AMR-S,Laptop,Alienware 15,12,24,Male,2014,1400,23,4,1,3,Premium Support,1500,Onsite support needed
15803365,AMR-N,Laptop,Alienware 17,12,36,Male,2015,1525,24,4,0,4,Premium Support,1500,Onsite support needed
15682773,SEAR,Laptop,Inspiron 14 3421    ,12,12,Female,2014,1278,26,2,2,5,Premium Support,1500,Onsite support needed
15575417,EMR-M,Laptop,Latitude 5480,12,0,Male,2018,1550,45,5,2,4,Premium Support,1500,Onsite support needed
15796721,SEAR,Laptop,Latitude 5490,12,36,Male,2015,1596,34,4,1,5,Premium Support,1500,Onsite support needed
15576683,AMR-S,Laptop,Alienware 15,12,24,Female,2017,1950,26,5,0,4,Premium Support,1500,Onsite support needed
15612108,AMR-N,Laptop,Alienware 17,12,36,Male,2018,1750,30,0,2,3,Premium Support,1500,Onsite support needed
15694409,EMR-M,Laptop,Inspiron 14 3421    ,12,12,Female,2015,1584,38,2,3,4,Premium Support,1500,Virus and malware
15689514,SEAR,Laptop,Latitude 5480,12,0,Male,2016,1249,37,4,0,5,Premium Support,1500,Virus and malware
15621353,WPR,Laptop,Latitude 5490,12,36,Female,2014,1293,26,2,0,5,Premium Support,1500,Virus and malware
15749177,EMR,Laptop,Alienware 15,12,0,Male,2015,1200,22,1,0,4,Premium Support,1500,Virus and malware
15723006,SAR,Laptop,Alienware 17,12,36,Male,2014,1400,24,1,2,4,Premium Support,1500,Virus and malware
15600821,EMR-M,Laptop,Alienware 15,12,24,Male,2014,1700,27,3,0,4,Premium Support,1500,Virus and malware
15710164,SEAR,Laptop,Alienware 17,12,36,Female,2017,1640,25,0,1,4,Premium Support,1500,Virus and malware
15796334,SAR,Laptop,Inspiron 14 3421    ,12,12,Male,2018,1544,32,1,1,5,Premium Support,1500,Virus and malware
15646302,EUR,Laptop,Latitude 5480,12,0,Female,2014,1632,20,3,2,5,Premium Support,1500,Virus and malware
15680855,SAR,Laptop,Latitude 5490,12,36,Male,2015,1667,30,2,3,4,Premium Support,1500,help with network setup
15726556,EMR-M,Laptop,Alienware 15,12,24,Female,2015,1800,23,3,1,5,Premium Support,1500,help with network setup
15774882,SAR,Laptop,Alienware 17,12,36,Female,2016,1440,23,4,2,5,Premium Support,1500,help with network setup
15744517,EUR,Laptop,15 r inspiron ,36,48,Male,2015,1450,40,1,0,3,Premium Support,1500,help with network setup
15677049,SEAR,Laptop,15 r inspiron ,12,24,Female,2018,1603,45,1,1,3,Premium Support,1500,help with network setup
15590146,AFR,Laptop,Alienware 17,12,12,Female,2017,1645,20,4,3,5,Premium Support,1500,help with network setup
15801548,AFR,Laptop,Alienware 17,12,0,Male,2018,1750,24,3,2,5,Premium Support,1500,help with network setup
15660833,AFR,Laptop,Alienware 17,12,24,Male,2018,1750,22,1,1,5,Premium Support,1500,help with network setup
15762277,AMR-N,Laptop,Alienware 17,12,24,Female,2017,1645,26,4,2,5,Premium Support,1500,help with network setup
15791302,AMR-N,Laptop,Alienware 17,12,0,Male,2014,1431,28,4,1,5,Premium Support,1500,help with network setup
15798975,AMR-N,Laptop,Alienware 17,12,12,Female,2015,1525,24,0,0,4,Premium Support,1500,help with network setup
15599956,AMR-N,Laptop,Alienware 17,12,0,Female,2018,1750,25,0,0,3,Premium Support,1500,help with network setup
15577274,AMR-S,Laptop,Alienware 17,12,24,Female,2017,1645,27,4,0,3,Premium Support,1500,help with network setup
15586974,AMR-S,Laptop,Alienware 17,12,12,Male,2018,1750,24,3,1,3,Premium Support,1500,help with network setup
15729040,AMR-S,Laptop,Alienware 17,12,0,Female,2018,1750,29,4,2,5,Premium Support,1500,help with network setup
15788676,AMR-S,Laptop,Alienware 17,12,12,Male,2016,1455,20,3,3,5,Battery Replacement,800,overheating
15602497,AMR-S,Laptop,Alienware 17,12,0,Male,2017,1645,29,1,0,3,Battery Replacement,800,overheating
15701333,EMR,Laptop,Alienware 17,12,12,Male,2016,1480,29,3,1,4,Battery Replacement,800,overheating
15701333,EMR,Laptop,Alienware 17,12,24,Male,2016,1490,23,4,0,4,Battery Replacement,800,overheating
15701333,EMR,Laptop,Alienware 17,12,36,Female,2018,1750,23,2,1,4,Battery Replacement,800,overheating
15701333,EMR,Laptop,Alienware 17,12,0,Male,2018,1750,20,2,2,5,Battery Replacement,800,overheating
15701333,EMR,Laptop,Alienware 17,12,24,Female,2018,1750,29,0,0,4,Battery Replacement,800,overheating
15591130,EMR-M,Laptop,Alienware 17,12,24,Male,2016,1460,24,2,3,5,Battery Replacement,800,overheating
15591130,EMR-M,Laptop,Alienware 17,12,12,Male,2017,1645,21,5,2,4,Battery Replacement,800,overheating
15591130,EMR-M,Laptop,Alienware 17,12,24,Male,2018,1750,20,0,1,3,Battery Replacement,800,overheating
15591130,EMR-M,Laptop,Alienware 17,12,12,Female,2018,1750,22,2,0,5,Battery Replacement,800,overheating
15781210,EUR,Laptop,Alienware 17,12,12,Male,2016,1450,23,1,2,5,Battery Replacement,800,overheating
15715031,EUR,Laptop,Alienware 17,12,24,Male,2017,1645,21,4,0,5,Battery Replacement,800,Unexpected Shutdowns
15589660,EUR,Laptop,Alienware 17,12,24,Female,2018,1750,29,3,3,2,,,
15769818,EUR,Laptop,Alienware 17,12,36,Female,2018,1750,27,5,2,2,,,
15614818,SAR,Laptop,Alienware 17,12,12,Male,2018,1750,21,3,0,2,,,
15794014,SAR,Laptop,Alienware 17,12,24,Female,2018,1750,24,0,3,4,Battery Replacement,800,Unexpected Shutdowns
15732448,SAR,Laptop,Alienware 17,12,12,Female,2018,1750,24,4,3,4,Battery Replacement,800,Unexpected Shutdowns
15723411,SAR,Laptop,Alienware 17,12,24,Male,2018,1750,24,2,2,2,,,
15797686,WPR,Laptop,Alienware 17,12,12,Female,2018,1750,26,0,2,4,Battery Replacement,800,Unexpected Shutdowns
15605950,AFR,Laptop,Alienware 15,12,0,Male,2018,1900,27,2,2,2,,,
15812497,AFR,Laptop,Alienware 15,12,12,Male,2018,1900,29,5,2,2,,,
15690678,AFR,Laptop,Alienware 15,12,12,Female,2018,1900,26,4,3,3,Battery Replacement,800,Unexpected Shutdowns
15747677,AMR-N,Laptop,Alienware 15,12,0,Female,2018,1500,26,1,1,2,Battery Replacement,800,Unexpected Shutdowns
15618926,AMR-N,Laptop,Alienware 15,12,12,Male,2017,1450,24,4,1,2,Battery Replacement,800,Unexpected Shutdowns
15673908,AMR-N,Laptop,Alienware 15,12,24,Male,2018,1500,22,2,3,4,Battery Replacement,800,Unexpected Shutdowns
15727944,AMR-S,Laptop,Alienware 15,12,0,Male,2016,1900,28,5,3,2,Battery Replacement,800,Unexpected Shutdowns
15807294,AMR-S,Laptop,Alienware 15,12,12,Male,2018,2000,25,4,0,4,Battery Replacement,800,Low Battery Runtime
15618581,AMR-S,Laptop,Alienware 15,12,12,Male,2018,2000,26,0,3,3,Battery Replacement,800,Low Battery Runtime
15599552,EMR,Laptop,Alienware 15,12,12,Female,2016,1340,26,1,1,3,Battery Replacement,800,Low Battery Runtime
15668893,EMR,Laptop,Alienware 15,12,24,Male,2017,1360,29,0,2,4,Battery Replacement,800,Low Battery Runtime
15722902,EMR,Laptop,Alienware 15,12,24,Male,2018,1400,20,4,1,2,Battery Replacement,800,Low Battery Runtime
15584364,EMR,Laptop,Alienware 15,12,12,Female,2018,1400,22,4,2,4,Battery Replacement,800,Low Battery Runtime
15568106,EMR-M,Laptop,Alienware 15,12,12,Male,2018,2000,29,0,2,4,Battery Replacement,800,Low Battery Runtime
15779481,EMR-M,Laptop,Alienware 15,12,12,Male,2018,2000,22,5,2,4,Battery Replacement,800,Low Battery Runtime
15709994,EUR,Laptop,Alienware 15,12,12,Male,2016,1900,25,5,1,3,Battery Replacement,800,Low Battery Runtime
15772777,EUR,Laptop,Alienware 15,12,24,Male,2018,2200,29,0,2,2,Battery Replacement,800,Low Battery Runtime
15706815,EUR,Laptop,Alienware 15,12,36,Female,2018,2200,24,2,3,2,,,
15618018,EUR,Laptop,Alienware 15,12,36,Male,2018,2200,23,2,0,3,Battery Replacement,800,Low Battery Runtime
15671032,SAR,Laptop,Alienware 15,12,12,Male,2017,1900,21,0,3,2,Battery Replacement,800,Low Battery Runtime
15634281,SAR,Laptop,Alienware 15,12,12,Male,2018,1950,20,3,1,2,,,
15766374,SAR,Laptop,Alienware 15,12,12,Male,2018,1950,24,2,2,2,Battery Replacement,800,Low Battery Runtime
15600991,SEAR,Laptop,Alienware 15,12,12,Male,2017,1850,27,5,1,2,Battery Replacement,800,Low Battery Runtime
15777576,SEAR,Laptop,Alienware 15,12,36,Male,2018,1900,24,5,1,3,Battery Replacement,800,Low Battery Runtime
15742613,SEAR,Laptop,Alienware 15,12,12,Female,2016,1800,27,3,1,3,Battery Replacement,800,Low Battery Runtime
15649523,SEAR,Laptop,Alienware 15,12,24,Female,2018,1900,21,4,3,2,Battery Replacement,800,Low Battery Runtime
15683124,WPR,Laptop,Alienware 15,12,0,Male,2017,1825,27,1,1,3,Battery Replacement,800,Low Battery Runtime
15670823,WPR,Laptop,Alienware 15,12,12,Male,2017,1825,26,0,2,2,Battery Replacement,800,Low Battery Runtime
15651063,WPR,Laptop,Alienware 15,12,12,Male,2018,1900,24,3,0,4,Battery Replacement,800,Low Battery Runtime
15618314,WPR,Laptop,Alienware 15,12,36,Female,2018,1900,30,4,0,3,Battery Replacement,800,Low Battery Runtime
15555218,AFR,Server,Dell PowerEdge T430 Tower Server,36,24,Male,2017,1485,34,2,1,2,Datacenter Scalable Solutions ,500,Server Crash
15577657,WPR,Server,Dell PowerEdge T430 Tower Server,36,24,Male,2015,1360,23,2,3,4,Legacy Server Models,800,Viruses and Cyber Hacking
15699309,SEAR,Server,Dell PowerEdge T430 Tower Server,36,0,Female,2014,1665,34,4,2,2,Datacenter Scalable Solutions ,500,Server Crash
15738191,AMR-N,Server,Dell PowerEdge T430 Tower Server,36,36,Male,2016,1719,57,4,2,2,Datacenter Scalable Solutions ,500,Server Crash
15700772,EMR,Server,Dell PowerEdge T430 Tower Server,36,24,Male,2015,1328,34,0,2,2,Datacenter Scalable Solutions ,500,Server Crash
15706552,WPR,Server,Dell PowerEdge T430 Tower Server,36,0,Male,2015,1360,26,3,3,4,Poweredge,700,Viruses and Cyber Hacking
15659428,SEAR,Server,Dell PowerEdge T430 Tower Server,36,24,Female,2017,1431,26,3,2,4,Poweredge,700,Viruses and Cyber Hacking
15638424,EMR-M,Server,Dell PowerEdge T430 Tower Server,36,36,Female,2016,1711,27,1,0,2,Datacenter Scalable Solutions ,500,Server Crash
15575185,AMR-N,Server,Dell PowerEdge T30 Server,36,0,Male,2017,1507,34,4,1,2,Datacenter Scalable Solutions ,500,Server Crash
15706021,EMR-M,Server,Dell PowerEdge R440 Rack Server,36,24,Female,2015,1369,42,4,2,2,Poweredge,700,Viruses and Cyber Hacking
15738751,SAR,Server,Dell PowerEdge T30 Server,36,36,Female,2014,1800,38,0,1,3,Poweredge,700,Viruses and Cyber Hacking
15805254,SEAR,Server,Dell PowerEdge T30 Server,36,48,Female,2017,1800,38,1,3,2,Poweredge,700,Viruses and Cyber Hacking
15625759,AFR,Server,Dell PowerEdge T30 Server,36,12,Male,2014,1627,37,4,3,2,Poweredge,700,Viruses and Cyber Hacking
15622897,AMR-N,Server,Dell PowerEdge T30 Server,36,24,Female,2018,1406,27,1,1,2,Poweredge,700,Viruses and Cyber Hacking
15817777,SAR,Server,Dell PowerEdge T30 Server,36,24,Male,2017,1473,30,1,2,4,Poweredge,700,Viruses and Cyber Hacking
15757535,EMR,Server,Dell PowerEdge T30 Server,36,24,Female,2016,1635,31,3,1,2,Poweredge,700,Viruses and Cyber Hacking
15693683,SAR,Server,Dell PowerEdge T30 Server,36,0,Male,2014,1900,38,5,3,2,Poweredge,700,Website traffic overload
15580146,AMR-S,Server,Dell PowerEdge T30 Server,36,0,Male,2015,1800,39,0,0,2,Poweredge,700,Website traffic overload
15776605,AFR,Server,Dell PowerEdge T30 Server,36,12,Male,2014,1750,39,2,1,4,Poweredge,700,Website traffic overload
15591607,WPR,Laptop,Inspiron 14 3421    ,12,24,Male,2018,1600,31,2,3,2,Battery Replacement,800,Low Battery Runtime
15712543,AFR,Laptop,Latitude 5480,12,24,Male,2014,1453,31,0,3,1,,,
15584518,AMR-N,Laptop,Latitude 5490,12,12,Female,2015,1595,30,3,0,4,Battery Replacement,800,Low Battery Runtime
15641122,EMR,Server,Dell PowerEdge T430 Tower Server,36,36,Male,2015,1732,27,1,2,4,Poweredge,700,Website traffic overload
15726676,SAR,Server,Dell PowerEdge R440 Rack Server,36,24,Male,2015,1390,39,3,1,4,Poweredge,700,Website traffic overload
15645248,SEAR,Server,Dell PowerEdge T430 Tower Server,36,36,Female,2014,1229,89,5,2,1,,,Website traffic overload
15729362,SAR,Server,Dell PowerEdge R440 Rack Server,36,0,Male,2015,1390,36,4,2,1,,,Website traffic overload
15637753,SAR,Server,Dell PowerEdge T430 Tower Server,36,24,Male,2016,2794,35,4,0,3,Poweredge,700,Website traffic overload
15764866,EMR-M,Laptop,Inspiron 14 3421    ,12,24,Female,2015,2596,23,0,3,1,,,
15813844,EMR-M,Laptop,Latitude 5480,12,24,Male,2015,2826,45,4,2,1,,,
15596175,EUR,Laptop,Latitude 5490,12,12,Male,2017,2713,34,3,2,1,,,
15817778,SAR,Server,Dell PowerEdge T30 Server,36,0,Female,2018,2635,37,3,3,1,,,Website traffic overload
15753754,SEAR,Server,Dell PowerEdge R440 Rack Server,36,24,Female,2014,1390,26,5,3,3,Poweredge,700,Website traffic overload
15745324,SAR,Server,Dell PowerEdge R440 Rack Server,36,24,Female,2015,1390,32,2,1,1,,,Website traffic overload
15813163,AFR,Server,Dell PowerEdge T430 Tower Server,36,36,Female,2014,2563,27,1,3,3,Datacenter Scalable Solutions ,500,Server Crash
15627305,SEAR,Server,Dell PowerEdge R440 Rack Server,36,24,Male,2014,1390,41,2,3,4,Datacenter Scalable Solutions ,500,Server Crash
15817779,SAR,Server,Dell PowerEdge T30 Server,36,12,Male,2016,2715,30,5,3,1,,,Website traffic overload
15601848,SAR,Laptop,Inspiron 14 3421    ,12,12,Male,2014,2612,29,4,2,1,,,
15601274,AFR,Laptop,Latitude 5480,12,0,Female,2015,2592,20,0,0,4,Battery Replacement,800,Battery Service Warning
15702669,AMR-N,Laptop,Latitude 5490,12,12,Male,2014,2804,30,4,1,3,Battery Replacement,800,Battery Service Warning
15633950,SEAR,Server,Dell PowerEdge T430 Tower Server,36,36,Male,2015,2470,25,1,2,1,,,Server Crash
15611579,AMR-N,Server,Dell PowerEdge R440 Rack Server,36,24,Male,2016,1390,39,4,2,3,Datacenter Scalable Solutions ,500,Server Crash
15827771,EUR,Server,Dell PowerEdge T30 Server,36,0,Female,2018,2647,31,0,1,4,Datacenter Scalable Solutions ,500,Server Crash
15803406,EUR,Laptop,Inspiron 14 3421    ,12,12,Female,2018,2795,26,1,0,1,Battery Replacement,800,Battery Service Warning
15794396,WPR,Laptop,Latitude 5480,12,0,Female,2016,2790,31,0,3,4,Battery Replacement,800,Battery Service Warning
15785798,AFR,Laptop,Latitude 5490,12,36,Male,2014,2621,30,4,0,1,Battery Replacement,800,Battery Service Warning
15837771,EMR-M,Server,Dell PowerEdge T30 Server,36,0,Female,2018,2742,32,3,3,1,,,Server Crash
15809722,AMR-S,Server,Dell PowerEdge T430 Tower Server,36,36,Female,2014,2578,29,0,2,3,Datacenter Scalable Solutions ,500,Server Crash
15813917,SEAR,Server,Dell PowerEdge R440 Rack Server,36,24,Male,2014,1390,32,4,1,3,Datacenter Scalable Solutions ,500,Failure of Hardware and software
15786063,AMR-S,Laptop,Inspiron 14 3421    ,12,12,Female,2017,2419,34,0,1,3,Battery Replacement,800,Battery Service Warning
15736112,SEAR,Laptop,Latitude 5480,12,0,Female,2015,2834,34,5,3,4,Battery Replacement,800,Battery Service Warning
15749851,WPR,Laptop,Latitude 5490,12,36,Female,2014,2523,56,4,0,3,Battery Replacement,800,Battery Service Warning
15800440,EMR,Laptop,Inspiron 14 3421    ,12,12,Male,2015,2426,34,5,1,4,Battery Replacement,800,Battery Service Warning
15651674,SAR,Laptop,Latitude 5480,12,0,Female,2016,2759,55,4,2,3,Extended Maintenance,500,Warranty Experied
15689614,WPR,Laptop,Latitude 5490,12,36,Female,2017,2605,50,0,0,3,Extended Maintenance,500,Warranty Experied
15728505,WPR,Laptop,Latitude 5480,12,0,Male,2015,2530,28,1,2,3,Extended Maintenance,500,Warranty Experied
15730076,AFR,Laptop,Latitude 5490,12,36,Male,2014,2678,30,0,0,3,Extended Maintenance,500,Warranty Experied
15837772,EMR-M,Server,Dell PowerEdge T30 Server,36,36,Female,2015,2546,28,1,3,3,Datacenter Scalable Solutions ,500,Failure of Hardware and software
15788291,EMR,Laptop,Latitude 5480,12,24,Female,2015,2743,20,0,1,3,Extended Maintenance,500,Warranty Experied
15604044,EMR-M,Laptop,Latitude 5490,12,12,Male,2014,2607,33,2,1,3,Extended Maintenance,500,Warranty Experied
15640865,WPR,Server,Dell PowerEdge R440 Rack Server,36,36,Female,2015,1390,34,0,2,4,Datacenter Scalable Solutions ,500,Failure of Hardware and software
15646161,EUR,Server,Dell PowerEdge T430 Tower Server,36,36,Female,2015,2628,23,2,2,3,Datacenter Scalable Solutions ,500,Failure of Hardware and software
15657386,EMR,Server,Dell PowerEdge R440 Rack Server,36,12,Female,2015,1390,26,0,1,4,Datacenter Scalable Solutions ,500,Failure of Hardware and software
15837773,EMR,Server,Dell PowerEdge T30 Server,36,12,Female,2015,2882,28,2,3,4,Datacenter Scalable Solutions ,500,Failure of Hardware and software
15837775,WPR,Server,Dell PowerEdge T30 Server,36,24,Male,2015,2626,27,1,1,3,Datacenter Scalable Solutions ,500,Failure of Hardware and software
15575024,AMR-N,Laptop,Inspiron 14 3421    ,12,12,Male,2018,2855,30,0,1,3,Extended Maintenance,500,Warranty Experied
15721024,WPR,Laptop,Latitude 5480,12,0,Male,2014,2434,34,4,2,3,Extended Maintenance,500,Warranty Experied
15745621,SAR,Laptop,Latitude 5490,12,36,Female,2015,2800,29,0,1,3,Extended Maintenance,500,Warranty Experied
15686611,WPR,Server,Dell PowerEdge R440 Rack Server,36,0,Male,2016,1390,28,3,2,3,Datacenter Scalable Solutions ,500,Failure of Hardware and software
15578977,SAR,Server,Dell PowerEdge T430 Tower Server,36,36,Male,2018,2869,29,5,1,3,Datacenter Scalable Solutions ,500,Failure of Hardware and software
15837774,AFR,Server,Dell PowerEdge T30 Server,36,12,Male,2014,2493,25,2,1,3,Datacenter Scalable Solutions ,500,Failure of Hardware and software
15634245,SAR,Laptop,Inspiron 14 3421    ,12,12,Female,2016,2602,57,4,3,3,Extended Maintenance,500,Warranty Experied
15637979,EMR,Laptop,Latitude 5480,12,0,Female,2016,2737,23,0,0,3,Extended Maintenance,500,Warranty Experied
15815364,EMR-M,Laptop,Latitude 5490,12,36,Female,2018,2496,34,3,0,3,Extended Maintenance,500,Warranty Experied
15685320,AMR-S,Server,Dell PowerEdge R440 Rack Server,36,0,Male,2015,1390,37,5,0,3,Datacenter Scalable Solutions ,500,Failure of Hardware and software
15654060,SAR,Server,Dell PowerEdge T430 Tower Server,36,12,Male,2015,2734,31,2,0,3,Datacenter Scalable Solutions ,500,Failure of Hardware and software
15837776,WPR,Server,Dell PowerEdge T30 Server,36,12,Male,2018,2659,25,1,0,3,Datacenter Scalable Solutions ,500,Failure of Hardware and software
15591969,EMR-M,Laptop,Inspiron 14 3421    ,12,12,Male,2015,2854,89,2,1,3,Extended Maintenance,500,Warranty Experied
15757811,SEAR,Laptop,Latitude 5480,12,0,Female,2017,2757,45,4,0,3,Extended Maintenance,500,Warranty Experied
15585036,AFR,Laptop,Inspiron 14 3421    ,12,12,Female,2016,2540,31,5,1,4,Extended Maintenance,500,Warranty Experied
15589488,AMR-N,Laptop,Inspiron 14 3421    ,12,48,Female,2017,2880,32,1,1,3,Extended Maintenance,500,Warranty Experied
15737792,AFR,Laptop,Latitude 5480,12,0,Female,2016,2747,40,2,3,3,Extended Maintenance,500,Warranty Experied
15599433,WPR,Laptop,Latitude 5490,12,36,Male,2016,2660,55,3,3,3,Extended Maintenance,500,Warranty Experied
15672012,AMR-S,Laptop,Latitude 5490,12,48,Female,2016,2720,50,3,0,3,Extended Maintenance,500,Warranty Experied
15608968,EUR,Laptop,Latitude 5480,12,36,Male,2016,2637,28,3,1,3,Extended Maintenance,500,Warranty Experied
15837775,AFR,Server,Dell PowerEdge T30 Server,36,12,female,2014,2614,36,3,0,3,Datacenter Scalable Solutions ,500,Failure of Hardware and software
15686137,AMR-S,Server,Dell PowerEdge R440 Rack Server,36,0,Male,2015,1390,29,0,1,3,Datacenter Scalable Solutions ,500,Slow page load
15756804,EUR,Server,Dell PowerEdge T430 Tower Server,36,12,Female,2017,2952,40,0,2,3,Datacenter Scalable Solutions ,500,Slow page load
15792388,SAR,Laptop,Inspiron 14 3421    ,12,12,Female,2018,2438,45,4,0,3,Extended Maintenance,500,Warranty Experied
15724848,WPR,Laptop,Latitude 5480,12,0,Female,2014,2738,23,5,3,3,Extended Maintenance,500,Warranty Experied
15754713,SAR,Laptop,Latitude 5490,12,12,Male,2018,2576,45,5,1,3,Extended Maintenance,500,Warranty Experied
15790299,SAR,Server,Dell PowerEdge T430 Tower Server,36,36,Male,2014,2868,38,2,0,3,Datacenter Scalable Solutions ,500,Slow page load
15640454,EUR,Server,Dell PowerEdge R440 Rack Server,36,24,Male,2014,1390,25,3,2,3,Datacenter Scalable Solutions ,500,Slow page load
15686776,SAR,Server,Dell PowerEdge R440 Rack Server,36,36,Female,2016,1390,36,4,1,2,,,Server Crash
15718944,SAR,Server,Dell PowerEdge R440 Rack Server,36,12,Male,2016,1390,28,3,0,2,,,Server Crash
15837321,AFR,Server,Dell PowerEdge T30 Server,36,36,Female,2017,2518,32,4,1,4,Datacenter Scalable Solutions ,500,Slow page load
15799811,AMR-N,Server,Dell PowerEdge T30 Server,36,36,Male,2018,2737,40,0,3,2,,,Server Crash
15698442,AMR-S,Server,Dell PowerEdge T30 Server,36,12,Male,2014,2745,32,0,3,2,,,Server Crash
15717164,SAR,Laptop,Inspiron 14 3421    ,12,12,Male,2014,2746,36,1,1,2,Extended Maintenance,500,Warranty Experied
15765014,SEAR,Laptop,Inspiron 14 3421    ,12,48,Female,2015,2497,37,2,2,3,Extended Maintenance,500,Warranty Experied
15767864,AMR-N,Laptop,Latitude 5480,12,0,Male,2015,2574,27,3,3,2,Extended Maintenance,500,Warranty Experied
15769948,AMR-S,Laptop,Latitude 5490,12,36,Male,2017,2610,26,4,2,2,Extended Maintenance,500,Warranty Experied
15686345,EMR-M,Laptop,Inspiron 14 3421    ,12,48,Male,2018,2531,28,3,1,2,Extended Maintenance,500,Warranty Experied
15785980,SEAR,Server,Dell PowerEdge T430 Tower Server,36,12,Male,2015,2954,31,3,1,4,Datacenter Scalable Solutions ,500,Slow page load
15644200,EMR,Server,Dell PowerEdge T430 Tower Server,12,0,Female,2017,2531,30,3,1,2,,,Server Crash
15633650,SAR,Laptop,Inspiron 14 3421    ,12,12,Female,2014,2509,28,2,1,2,Extended Maintenance,500,Warranty Experied
15589195,SAR,Laptop,Inspiron 14 3421    ,12,12,Female,2015,2641,29,2,0,3,Extended Maintenance,500,Warranty Experied
15646513,AMR-N,Laptop,Latitude 5480,12,0,Male,2018,2597,30,0,3,3,Extended Maintenance,500,Warranty Experied
15708063,AMR-N,Laptop,Latitude 5490,12,12,Male,2014,2629,40,0,1,4,Extended Maintenance,500,Warranty Experied
15696098,AMR-S,Laptop,Inspiron 14 3421    ,12,0,Female,2018,2709,23,0,0,3,Extended Maintenance,500,Warranty Experied
15604304,EUR,Laptop,Inspiron 14 3421    ,12,36,Female,2016,2882,56,5,0,2,,,
15714750,WPR,Server,Dell PowerEdge T430 Tower Server,36,36,Female,2016,2579,23,5,1,2,,,Server Crash
15767339,SEAR,Server,Dell PowerEdge R440 Rack Server,36,24,Female,2016,1390,30,4,1,2,,,Server Crash
15690664,EMR-M,Server,Dell PowerEdge T430 Tower Server,36,36,Male,2017,2630,27,0,2,2,,,Failure of Hardware and software
15595303,EUR,Server,Dell PowerEdge R440 Rack Server,36,36,Female,2014,1390,27,4,1,2,,,Failure of Hardware and software
15837322,AFR,Server,Dell PowerEdge T30 Server,36,36,Male,2015,2430,25,4,0,2,Legacy Server Models,800,Failure of Hardware and software
15721189,SEAR,Laptop,Inspiron 14 3421    ,12,12,Female,2018,2589,27,0,1,2,,,
15814930,WPR,Laptop,Latitude 5480,12,0,Female,2016,2784,22,0,3,2,,,
15658306,EMR-M,Laptop,Latitude 5490,12,36,Male,2017,2848,23,1,1,2,Extended Maintenance,500,Warranty Experied
15723339,SEAR,Server,Dell R530 Intel Xeon E5-2620v4 Server,36,24,Female,2014,2771,34,2,1,2,Legacy Server Models,800,Failure of Hardware and software
15641690,SEAR,Server,Dell PowerEdge T430 Tower Server,36,36,Male,2015,2983,50,1,0,2,Legacy Server Models,800,Failure of Hardware and software
15634896,AMR-N,Server,Dell R530 Intel Xeon E5-2620v4 Server,36,12,Female,2015,2577,45,0,0,2,Legacy Server Models,800,Failure of Hardware and software
15779182,EMR-M,Server,Dell R530 Intel Xeon E5-2620v4 Server,36,12,Male,2016,2770,59,1,2,4,Datacenter Scalable Solutions ,500,Slow page load
15807709,SEAR,Server,Dell PowerEdge R440 Rack Server,36,24,Female,2016,1480,25,5,3,2,Legacy Server Models,800,Failure of Hardware and software
15638806,AFR,Server,Dell R530 Intel Xeon E5-2620v4 Server,36,36,Male,2017,1584,27,4,2,2,Legacy Server Models,800,Failure of Hardware and software
15682773,SEAR,Laptop,Inspiron 14 3421    ,12,12,Female,2014,1278,26,2,2,3,Extended Maintenance,500,Warranty Experied
15575417,EMR-M,Laptop,Latitude 5480,12,0,Male,2018,1550,45,5,2,4,Extended Maintenance,500,Warranty Experied
15796721,SEAR,Laptop,Latitude 5490,12,36,Male,2015,1596,34,4,1,2,Extended Maintenance,500,Warranty Experied
15694409,EMR-M,Laptop,Inspiron 14 3421    ,12,12,Female,2015,1584,38,2,3,2,Pro Suport Plus,700,accidental damage repair
15689514,SEAR,Laptop,Latitude 5480,12,0,Male,2016,1249,37,4,0,1,,,
15621353,WPR,Laptop,Latitude 5490,12,36,Female,2014,1293,26,2,0,2,Pro Suport Plus,700,accidental damage repair
15730540,EMR,Server,Dell PowerEdge T430 Tower Server,36,36,Male,2015,1584,26,0,0,2,Legacy Server Models,800,Failure of Hardware and software
15646276,AMR-N,Server,Dell R530 Intel Xeon E5-2620v4 Server,36,12,Female,2014,1642,27,5,0,2,Legacy Server Models,800,Failure of Hardware and software
15582180,AMR-S,Server,Dell R530 Intel Xeon E5-2620v4 Server,36,24,Male,2015,1690,28,2,2,1,Legacy Server Models,800,Failure of Hardware and software
15697095,AFR,Server,Dell R530 Intel Xeon E5-2620v4 Server,36,12,Male,2014,1510,29,3,2,1,,,Failure of Hardware and software
15619029,AFR,Server,Dell R530 Intel Xeon E5-2620v4 Server,36,24,Female,2017,1289,35,1,2,4,Datacenter Scalable Solutions ,500,Slow page load
15613282,SEAR,Server,Dell R530 Intel Xeon E5-2620v4 Server,36,0,Male,2016,1678,38,0,1,1,,,Failure of Hardware and software
15797276,WPR,Server,Dell PowerEdge R440 Rack Server,36,24,Female,2016,1540,38,3,0,1,,,Failure of Hardware and software
15629617,EMR,Server,Dell R530 Intel Xeon E5-2620v4 Server,36,12,Male,2015,1496,45,1,2,1,,,Server Lag
15579062,EUR,Server,Dell R530 Intel Xeon E5-2620v4 Server,36,36,Male,2015,1397,28,1,2,3,Datacenter Scalable Solutions ,500,Slow page load
15814268,SAR,Server,Dell PowerEdge T30 Server,36,48,Female,2014,1229,37,5,0,1,,,Server Lag
15693904,WPR,Server,Dell PowerEdge T30 Server,36,12,Female,2018,1282,39,1,1,1,,,Server Lag
15837324,AFR,Server,Dell PowerEdge T30 Server,36,0,Male,2014,1463,31,5,3,1,,,Server Lag
15626485,EMR,Server,Dell R530 Intel Xeon E5-2620v4 Server,36,36,Female,2014,1711,31,3,1,1,,,Server Lag
15809772,EMR-M,Server,Dell R530 Intel Xeon E5-2620v4 Server,36,24,Male,2018,1501,28,3,1,3,Datacenter Scalable Solutions ,500,Slow page load
15574068,AFR,Server,Dell R530 Intel Xeon E5-2620v4 Server,36,12,Male,2014,1627,35,5,1,1,,,Server Lag
15796334,SAR,Laptop,Inspiron 14 3421    ,12,12,Male,2018,1544,32,1,1,4,Pro Suport Plus,700,accidental damage repair
15646302,EUR,Laptop,Latitude 5480,12,0,Female,2014,1632,20,3,2,1,,,
15680855,SAR,Laptop,Latitude 5490,12,36,Male,2015,1667,30,2,3,1,,,
15714227,WPR,Server,Dell R530 Intel Xeon E5-2620v4 Server,36,12,Female,2017,1219,40,0,1,1,,,Server Lag
15590320,SEAR,Server,Dell R530 Intel Xeon E5-2620v4 Server,36,36,Male,2017,1710,56,1,3,1,,,Server Lag
15657085,EMR-M,Server,Dell PowerEdge R440 Rack Server,36,0,Male,2015,1531,31,3,3,1,,,Server Lag
15566211,WPR,Server,Dell R530 Intel Xeon E5-2620v4 Server,36,36,Female,2018,1400,57,1,2,1,,,Server Lag
15669293,EMR,Server,Dell R530 Intel Xeon E5-2620v4 Server,36,12,Male,2018,1274,89,1,1,3,Datacenter Scalable Solutions ,500,Slow page load
15753566,EMR-M,Server,Dell R530 Intel Xeon E5-2620v4 Server,36,48,Female,2014,1641,56,0,2,3,Datacenter Scalable Solutions ,500,Slow page load
15670374,AFR,Server,Dell PowerEdge T430 Tower Server,36,36,Female,2015,1348,45,0,1,4,Datacenter Scalable Solutions ,500,Slow page load
15700223,EUR,Server,Dell R530 Intel Xeon E5-2620v4 Server,36,24,Male,2014,1799,46,2,2,1,,,Connection getting dropped
15729956,SEAR,Server,Dell R530 Intel Xeon E5-2620v4 Server,36,12,Female,2015,1744,47,2,0,3,Datacenter Scalable Solutions ,500,Slow page load
15630725,SAR,Server,Dell R530 Intel Xeon E5-2620v4 Server,36,24,Female,2014,1336,40,5,3,1,,,Connection getting dropped
15640260,SAR,Server,Dell R530 Intel Xeon E5-2620v4 Server,36,12,Male,2015,1421,47,4,1,1,,,Connection getting dropped
15790683,SAR,Server,Dell R530 Intel Xeon E5-2620v4 Server,36,0,Male,2015,1639,53,3,0,4,Legacy Server Models,800,Connection getting dropped
15617705,AFR,Server,Dell R530 Intel Xeon E5-2620v4 Server,36,36,Female,2018,1796,34,4,3,1,,,Connection getting dropped
15714080,WPR,Server,Dell PowerEdge R440 Rack Server,36,12,Male,2016,1450,42,1,2,1,,,Connection getting dropped
15751158,WPR,Server,Dell PowerEdge R440 Rack Server,36,12,Female,2017,1500,33,5,3,1,,,Connection getting dropped
15648721,WPR,Server,Dell PowerEdge R440 Rack Server,36,0,Female,2017,1500,43,1,3,1,,,Connection getting dropped
15776231,WPR,Server,Dell PowerEdge R440 Rack Server,36,0,Male,2018,1600,25,4,2,1,,,Connection getting dropped
15593470,WPR,Server,Dell PowerEdge R440 Rack Server,36,12,Female,2018,1600,31,0,1,1,,,Connection getting dropped
15695129,WPR,Server,Dell PowerEdge R440 Rack Server,36,24,Male,2018,1600,34,1,1,1,,,Connection getting dropped
15801466,AMR-N,Server,Dell PowerEdge R440 Rack Server,36,12,Female,2017,1430,43,0,3,1,,,Connection getting dropped
15750248,AMR-N,Server,Dell PowerEdge R440 Rack Server,36,12,Male,2017,1430,40,2,3,1,,,Connection getting dropped
15758726,AMR-N,Server,Dell PowerEdge R440 Rack Server,36,0,Male,2018,1440,35,5,0,4,Legacy Server Models,800,Virus and Cyber Hacking
15781553,AMR-N,Server,Dell PowerEdge R440 Rack Server,36,0,Female,2018,1440,33,4,3,3,Legacy Server Models,800,Virus and Cyber Hacking
15649121,AMR-N,Server,Dell PowerEdge R440 Rack Server,36,12,Male,2018,1440,27,0,1,1,,,Virus and Cyber Hacking
15674811,AMR-S,Server,Dell PowerEdge R440 Rack Server,36,12,Female,2017,1472,33,5,2,1,,,Virus and Cyber Hacking
15646037,AMR-S,Server,Dell PowerEdge R440 Rack Server,36,24,Female,2017,1472,25,1,1,1,,,Virus and Cyber Hacking
15722578,AMR-S,Server,Dell PowerEdge R440 Rack Server,36,0,Male,2018,1480,29,3,2,4,Legacy Server Models,800,Virus and Cyber Hacking
15665695,AMR-S,Server,Dell PowerEdge R440 Rack Server,36,12,Female,2018,1480,33,3,3,3,Legacy Server Models,800,Virus and Cyber Hacking
15811762,EMR,Server,Dell PowerEdge R440 Rack Server,36,24,Female,2016,1490,25,4,0,4,Legacy Server Models,800,Virus and Cyber Hacking
15770309,EMR,Server,Dell PowerEdge R440 Rack Server,36,36,Male,2016,1490,25,0,0,3,Legacy Server Models,800,Virus and Cyber Hacking
15777797,EMR,Server,Dell PowerEdge R440 Rack Server,36,0,Male,2017,1530,32,0,3,2,Legacy Server Models,800,Virus and Cyber Hacking
15662955,EMR,Server,Dell PowerEdge R440 Rack Server,36,12,Female,2018,1580,27,5,2,4,Legacy Server Models,800,Virus and Cyber Hacking
15783955,EMR,Server,Dell PowerEdge R440 Rack Server,36,12,Female,2018,1580,29,5,3,2,Legacy Server Models,800,Virus and Cyber Hacking
15804516,EMR-M,Server,Dell PowerEdge R440 Rack Server,36,12,Male,2016,1595,33,4,1,2,Legacy Server Models,800,Virus and Cyber Hacking
15681758,EMR-M,Server,Dell PowerEdge R440 Rack Server,36,0,Female,2017,1598,26,5,1,4,Legacy Server Models,800,Virus and Cyber Hacking
15630321,EMR-M,Server,Dell PowerEdge R440 Rack Server,36,12,Male,2018,1625,26,4,2,2,Legacy Server Models,800,Virus and Cyber Hacking
15588248,EMR-M,Server,Dell PowerEdge R440 Rack Server,36,24,Female,2018,1625,27,0,0,4,Legacy Server Models,800,Virus and Cyber Hacking
15634950,EUR,Server,Dell PowerEdge R440 Rack Server,36,24,Male,2017,1450,27,2,1,2,Legacy Server Models,800,Virus and Cyber Hacking
15781465,EUR,Server,Dell PowerEdge R440 Rack Server,36,24,Female,2018,1550,31,2,2,3,Legacy Server Models,800,Website traffic overload
15685372,EUR,Server,Dell PowerEdge R440 Rack Server,36,0,Male,2018,1550,34,0,3,4,Legacy Server Models,800,Website traffic overload
15745827,EUR,Server,Dell PowerEdge R440 Rack Server,36,12,Female,2018,1550,36,5,1,3,Legacy Server Models,800,Website traffic overload
15586310,SAR,Server,Dell PowerEdge R440 Rack Server,36,36,Male,2017,1500,41,5,1,3,Legacy Server Models,800,Website traffic overload
15678626,SAR,Server,Dell PowerEdge R440 Rack Server,36,0,Female,2018,1525,34,0,3,3,Legacy Server Models,800,Website traffic overload
15571550,SAR,Server,Dell PowerEdge R440 Rack Server,36,12,Male,2018,1525,36,0,0,2,Legacy Server Models,800,Website traffic overload
15754177,SEAR,Server,Dell PowerEdge R440 Rack Server,36,12,Female,2017,1500,29,3,3,4,Legacy Server Models,800,Website traffic overload
15683544,SEAR,Server,Dell PowerEdge R440 Rack Server,36,12,Male,2017,1500,32,4,2,2,Legacy Server Models,800,Website traffic overload
15708048,SEAR,Server,Dell PowerEdge R440 Rack Server,36,0,Female,2018,1505,42,3,1,2,Legacy Server Models,800,Website traffic overload
15701109,SEAR,Server,Dell PowerEdge R440 Rack Server,36,24,Male,2018,1505,26,3,2,2,Legacy Server Models,800,Website traffic overload
15651533,AFR,Server,Dell PowerEdge T30 Server,36,12,Female,2017,1679,29,5,3,3,Legacy Server Models,800,Website traffic overload
15777904,AFR,Server,Dell PowerEdge T30 Server,36,24,Male,2017,1289,40,0,2,2,Legacy Server Models,800,Connection getting dropped
15655574,AFR,Server,Dell PowerEdge T30 Server,36,36,Male,2015,1450,31,1,3,2,Legacy Server Models,800,Connection getting dropped
15569423,AFR,Server,Dell PowerEdge T30 Server,36,12,Female,2018,1223,32,0,1,2,Legacy Server Models,800,Connection getting dropped
15718106,AFR,Server,Dell PowerEdge T30 Server,36,24,Male,2018,1549,25,1,1,3,Legacy Server Models,800,Connection getting dropped
15651533,AFR,Server,Dell PowerEdge T30 Server,36,36,Female,2018,1539,31,4,0,1,,,Connection getting dropped
15654851,AMR-N,Server,Dell PowerEdge T30 Server,36,12,Female,2017,1354,30,0,0,4,Legacy Server Models,800,Connection getting dropped
15741429,AMR-N,Server,Dell PowerEdge T30 Server,36,0,Female,2016,1421,37,4,1,1,,,Connection getting dropped
15682356,AMR-N,Server,Dell PowerEdge T30 Server,36,24,Female,2016,1550,34,0,3,1,,,Connection getting dropped
15806447,AMR-N,Server,Dell PowerEdge T30 Server,36,36,Male,2018,1488,32,4,0,1,,,Connection getting dropped
15800229,AMR-N,Server,Dell PowerEdge T30 Server,36,12,Female,2017,1533,26,0,2,1,,,Server Crash
15775082,AMR-S,Server,Dell PowerEdge T30 Server,36,12,Female,2015,1296,40,0,3,1,,,Server Crash
15579706,AMR-S,Server,Dell PowerEdge T30 Server,36,0,Male,2016,1462,28,0,3,1,,,Server Crash
15718247,AMR-S,Server,Dell PowerEdge T30 Server,36,24,Female,2018,1267,27,1,2,4,Legacy Server Models,800,Server Crash
15755722,AMR-S,Server,Dell PowerEdge T30 Server,36,36,Male,2018,1485,30,4,1,1,,,Server Crash
15582259,AMR-S,Server,Dell PowerEdge T30 Server,36,0,Female,2018,1374,38,2,1,1,,,Server Crash
15586880,EMR,Server,Dell PowerEdge T30 Server,36,12,Female,2016,1582,32,3,2,1,,,Server Crash
15713854,EMR,Server,Dell PowerEdge T30 Server,36,24,Male,2017,1365,38,0,0,3,Legacy Server Models,800,Server Crash
15780835,EMR,Server,Dell PowerEdge T30 Server,36,12,Female,2018,1402,36,3,1,1,,,Server Crash
15675896,EMR,Server,Dell PowerEdge T30 Server,36,36,Male,2017,1345,29,1,0,4,Legacy Server Models,800,Server Crash
15658459,EMR,Server,Dell PowerEdge T30 Server,36,24,Male,2018,1343,27,3,1,1,,,Server Crash
15658057,EMR,Server,Dell PowerEdge T30 Server,36,12,Female,2015,1227,30,5,2,3,Legacy Server Models,800,Server Crash
15569178,EMR-M,Server,Dell PowerEdge T30 Server,36,12,Female,2016,1445,36,3,1,4,Legacy Server Models,800,Server Crash
15731478,EMR-M,Server,Dell PowerEdge T30 Server,36,12,Male,2016,1356,25,1,2,1,,,Unexpected Server Drop
15811236,EMR-M,Server,Dell PowerEdge T30 Server,36,24,Female,2017,1658,30,0,0,4,Legacy Server Models,800,Unexpected Server Drop
15746749,EMR-M,Server,Dell PowerEdge T30 Server,36,24,Male,2018,1205,40,2,2,1,,,Unexpected Server Drop
15662758,EMR-M,Server,Dell PowerEdge T30 Server,36,0,Female,2018,1530,32,0,0,1,,,Unexpected Server Drop
15709387,EMR-M,Server,Dell PowerEdge T30 Server,36,12,Male,2018,1355,39,0,3,1,,,Unexpected Server Drop
15713826,EUR,Server,Dell PowerEdge T30 Server,36,1224,Female,2018,1273,27,2,3,1,,,Unexpected Server Drop
15570205,EUR,Server,Dell PowerEdge T30 Server,36,36,Female,2017,1551,27,4,3,1,Legacy Server Models,800,Unexpected Server Drop
15589348,EUR,Server,Dell PowerEdge T30 Server,36,36,Female,2017,1584,32,0,2,4,Legacy Server Models,800,Unexpected Server Drop
15804610,EUR,Server,Dell PowerEdge T30 Server,36,24,Female,2015,1256,27,1,0,4,Legacy Server Models,800,Unexpected Server Drop
15700854,EUR,Server,Dell PowerEdge T30 Server,36,24,Male,2016,1544,28,0,1,4,Legacy Server Models,800,Unexpected Server Drop
15758836,EUR,Server,Dell PowerEdge T30 Server,36,12,Female,2016,1617,27,3,0,4,Legacy Server Models,800,Unexpected Server Drop
15772933,SAR,Server,Dell PowerEdge T30 Server,36,12,Female,2017,1257,35,4,1,4,Legacy Server Models,800,Unexpected Server Drop
15809006,SAR,Server,Dell PowerEdge T30 Server,36,24,Male,2018,1259,26,4,3,1,Legacy Server Models,800,Server Down Due to router malfunctions
15689612,SAR,Server,Dell PowerEdge T30 Server,36,12,Female,2018,1581,40,5,3,1,Legacy Server Models,800,Server Down Due to router malfunctions
15704250,SEAR,Server,Dell PowerEdge T30 Server,36,12,Female,2018,1384,32,2,0,1,Legacy Server Models,800,Server Down Due to router malfunctions
15700255,SEAR,Server,Dell PowerEdge T30 Server,36,0,Male,2018,1515,37,0,1,4,Legacy Server Models,800,Server Down Due to router malfunctions
15669410,SEAR,Server,Dell PowerEdge T30 Server,36,12,Female,2017,1206,32,2,0,4,Legacy Server Models,800,Server Down Due to router malfunctions
15807595,SEAR,Server,Dell PowerEdge T30 Server,36,24,Male,2016,1558,25,5,2,1,Legacy Server Models,800,Server Down Due to router malfunctions
15664523,SEAR,Server,Dell PowerEdge T30 Server,36,12,Female,2018,1293,34,3,0,4,Legacy Server Models,800,Server Down Due to router malfunctions
15605279,WPR,Server,Dell PowerEdge T30 Server,36,24,Male,2017,1551,40,3,1,4,Legacy Server Models,800,Server Down Due to router malfunctions
15713644,WPR,Server,Dell PowerEdge T30 Server,36,24,Female,2018,1586,39,3,0,1,Datacenter Scalable Solutions ,500,Slow page load
15750466,WPR,Server,Dell PowerEdge T30 Server,36,24,Male,2016,1295,38,2,0,3,Datacenter Scalable Solutions ,500,Slow page load
15772892,AFR,Server,Dell PowerEdge R440 Rack Server,36,36,Female,2014,1300,26,3,0,3,Datacenter Scalable Solutions ,500,Slow page load
15713843,AFR,Server,Dell PowerEdge R440 Rack Server,36,0,Male,2015,1325,35,1,3,2,Poweredge,700,Server Down Due to router malfunctions
15567993,AFR,Server,Dell PowerEdge R440 Rack Server,36,0,Male,2016,1350,34,4,2,2,Poweredge,700,Server Down Due to router malfunctions
15612771,AFR,Server,Dell PowerEdge R440 Rack Server,36,12,Male,2017,1375,34,5,0,2,Poweredge,700,Server Down Due to router malfunctions
15788483,AFR,Server,Dell PowerEdge R440 Rack Server,36,12,Female,2017,1375,25,4,3,4,Datacenter Scalable Solutions ,500,Slow page load
15732832,AFR,Server,Dell PowerEdge R440 Rack Server,36,24,Female,2017,1375,26,1,1,2,Poweredge,700,Server Down Due to router malfunctions
15744983,AFR,Server,Dell PowerEdge R440 Rack Server,36,0,Female,2018,1380,40,3,1,2,Poweredge,700,Server Down Due to router malfunctions
15586310,SAR,Hardisk,1 TB Portable,12,12,Male,2014,400,,5,2,4,ProSupport for Client Products,700,accidental damage repair
15678626,SAR,Hardisk,1 TB Portable,12,12,Male,2015,400,,5,3,1,,,
15571550,SAR,Hardisk,1 TB Portable,12,12,Male,2016,400,,4,1,1,,,
15754177,SEAR,Hardisk,1 TB Portable,12,12,Male,2017,400,,5,1,4,Post Standard Support,500,24X7 Remote monitoring
15683544,SEAR,Hardisk,1 TB Portable,12,12,Male,2018,400,,4,2,1,,,accidental damage repair
15708048,SEAR,Hardisk,1 TB Portable,12,12,Male,2014,400,,0,0,4,Keep Your Hard Drive,400,Secure Sensitive Company Data
15701109,SEAR,Hardisk,1 TB Portable,12,12,Male,2015,400,,2,1,2,Keep Your Hard Drive,400,Secure Sensitive Company Data
15651533,AFR,Hardisk,Axim X5,24,12,Male,2016,550,,2,2,3,Keep Your Hard Drive,400,Secure Sensitive Company Data
15777904,AFR,Hardisk,Axim X5,24,12,Male,2017,550,,0,3,4,Keep Your Hard Drive,400,Secure Sensitive Company Data
15655574,AFR,Hardisk,Axim X5,24,12,Male,2018,550,,5,1,3,Keep Your Hard Drive,400,Secure Sensitive Company Data
15569423,AFR,Hardisk,Axim X5,24,12,Male,2014,550,,5,1,3,Keep Your Hard Drive,400,Secure Sensitive Company Data
15718106,AFR,Hardisk,Axim X5,24,12,Male,2015,550,,0,3,3,Keep Your Hard Drive,400,Secure Sensitive Company Data
15651533,AFR,Hardisk,Axim X5,24,12,Male,2016,550,,0,0,2,Keep Your Hard Drive,400,Retain Physical control of a failed drive
15654851,AMR-N,Hardisk,Axim X5,24,12,Male,2017,550,,3,3,4,Keep Your Hard Drive,400,Retain Physical control of a failed drive
15741429,AMR-N,Hardisk,Axim X5,24,12,Male,2018,550,,4,2,2,Keep Your Hard Drive,400,Retain Physical control of a failed drive
15682356,AMR-N,Hardisk,Axim X3,24,12,Male,2014,500,,3,1,2,Keep Your Hard Drive,400,Retain Physical control of a failed drive
15806447,AMR-N,Hardisk,Axim X3,24,0,Female,2015,500,,3,2,2,Keep Your Hard Drive,400,Retain Physical control of a failed drive
15800229,AMR-N,Hardisk,Axim X3,24,0,Female,2016,500,,5,3,3,Keep Your Hard Drive,400,Retain Physical control of a failed drive
15775082,AMR-S,Hardisk,Axim X3,24,0,Female,2017,500,,0,2,1,,,
15579706,AMR-S,Hardisk,Axim X3,24,0,Female,2018,500,,1,3,1,,,
15718247,AMR-S,Hardisk,Axim X3,24,0,Female,2014,500,,0,1,1,,,
15755722,AMR-S,Hardisk,Axim X3,24,0,Female,2015,500,,1,1,3,Keep Your Hard Drive,400,Retain Physical control of a failed drive
15582259,AMR-S,Hardisk,Axim X3,24,0,Female,2016,500,,4,0,2,Keep Your Hard Drive,400,Retain Physical control of a failed drive
15586880,EMR,Hardisk,Axim X50,24,0,Female,2017,600,,0,0,4,Keep Your Hard Drive,400,Retain Physical control of a failed drive
15713854,EMR,Hardisk,Axim X50,24,24,Female,2018,600,,4,1,1,,,
15780835,EMR,Hardisk,Axim X50,24,24,Female,2014,600,,0,3,1,,,
15675896,EMR,Hardisk,Axim X50,24,24,Female,2015,600,,4,0,1,,,
15658459,EMR,Hardisk,Axim X50,24,24,Female,2016,600,,0,2,1,,,
15658057,EMR,Hardisk,Axim X50,24,24,Female,2017,600,,0,3,1,,,
15569178,EMR-M,Hardisk,Axim X50,24,24,Female,2018,600,,0,3,1,,,
15731478,EMR-M,Hardisk,Axim X50,24,24,Female,2014,600,,1,2,4,ProSupport for Client Products,700,accidental damage repair
15811236,EMR-M,Hardisk,Axim X50,24,24,Female,2015,600,,4,1,2,ProSupport for Client Products,700,accidental damage repair
15746749,EMR-M,Hardisk,Axim X50,24,24,Female,2016,600,,2,1,2,ProSupport for Client Products,700,accidental damage repair
15662758,EMR-M,Hardisk,Axim X50,24,24,Female,2017,600,,3,2,2,ProSupport for Client Products,700,accidental damage repair
15709387,EMR-M,Hardisk,1 TB Portable,12,24,Female,2018,400,,0,0,3,ProSupport for Client Products,700,accidental damage repair
15713826,EUR,Hardisk,1 TB Portable,12,24,Female,2014,400,,3,1,2,ProSupport for Client Products,700,accidental damage repair
15570205,EUR,Hardisk,1 TB Portable,12,24,Female,2015,400,,1,0,4,ProSupport for Client Products,700,accidental damage repair
15589348,EUR,Hardisk,1 TB Portable,12,24,Female,2016,400,,3,1,2,ProSupport for Client Products,700,accidental damage repair
15804610,EUR,Hardisk,1 TB Portable,12,24,Female,2017,400,,5,2,3,ProSupport for Client Products,700,accidental damage repair
15700854,EUR,Hardisk,1 TB Portable,12,24,Female,2018,400,,3,1,4,ProSupport for Client Products,700,accidental damage repair
15758836,EUR,Hardisk,1 TB Portable,12,24,Female,2018,400,,1,2,2,ProSupport for Client Products,700,accidental damage repair
15772933,SAR,Hardisk,1 TB Portable,12,24,Female,2018,400,,0,0,4,EMC Optimize for Storage,600,Daily System Monitoring
15555218,AFR,Storage,,24,0,Male,2014,,,4,2,4,Enterprise,1200,Security
15577657,WPR,Storage,,24,0,Male,2015,,,2,2,5,Entry Level Mid Range,1500,Security
15699309,SEAR,Storage,,24,0,Male,2016,,,5,0,3,Storage Software,1000,Security
15738191,AMR-N,Storage,,24,0,Male,2017,,,4,3,5,Enterprise,1200,Security
15700772,EMR,Storage,,24,0,Male,2018,,,1,0,5,Entry Level Mid Range,1500,Security
15706552,WPR,Storage,,24,0,Male,2014,,,1,1,3,Storage Software,1000,Security
15659428,SEAR,Storage,,24,0,Male,2015,,,0,1,5,Enterprise,1200,Security
15638424,EMR-M,Storage,,24,36,Male,2016,,,3,0,4,Entry Level Mid Range,1500,Security
15575185,AMR-N,Storage,,24,36,Male,2017,,,2,2,5,Storage Software,1000,Security
15706021,EMR-M,Storage,,24,36,Male,2018,,,2,2,5,Enterprise,1200,Security
15738751,SAR,Storage,,24,36,Male,2014,,,2,3,3,Entry Level Mid Range,1500,Security
15805254,SEAR,Storage,,24,36,Male,2015,,,4,2,5,Storage Software,1000,Security
15625759,AFR,Storage,,24,36,Male,2016,,,2,3,5,Enterprise,1200,Security
15622897,AMR-N,Storage,,24,36,Male,2017,,,0,3,5,Entry Level Mid Range,1500,Security
15817777,SAR,Storage,,24,36,Male,2018,,,3,0,3,Storage Software,1000,Security
15757535,EMR,Storage,,24,36,Female,2014,,,1,3,4,Enterprise,1200,Security
15693683,SAR,Storage,,24,24,Female,2015,,,5,1,3,Entry Level Mid Range,1500,Security
15580146,AMR-S,Storage,,24,24,Female,2016,,,0,3,5,Storage Software,1000,Security
15776605,AFR,Storage,,24,24,Female,2017,,,2,2,5,Enterprise,1200,Security
15641122,EMR,Storage,,24,24,Female,2018,,,5,0,5,Entry Level Mid Range,1500,Security
15726676,SAR,Storage,,24,24,Female,2014,,,0,3,4,Storage Software,1000,Corruption
15645248,SEAR,Storage,,24,24,Female,2015,,,4,2,4,Enterprise,1200,Corruption
15729362,SAR,Storage,,24,24,Female,2016,,,3,2,3,Entry Level Mid Range,1500,Corruption
15637753,SAR,Storage,,24,24,Female,2017,,,0,0,3,Storage Software,1000,Corruption
15817778,SAR,Storage,,24,24,Female,2018,,,0,1,5,Enterprise,1200,Corruption
15753754,SEAR,Storage,,24,24,Female,2014,,,0,2,3,Entry Level Mid Range,1500,Corruption
15745324,SAR,Storage,,24,24,Female,2015,,,2,3,3,Storage Software,1000,Corruption
15813163,AFR,Storage,,24,12,Female,2016,,,5,1,0,,,Corruption
15627305,SEAR,Storage,,24,12,Female,2017,,,4,2,0,,,Corruption
15817779,SAR,Storage,,24,12,Female,2018,,,0,0,0,,,Corruption
15633950,SEAR,Storage,,24,12,Female,2014,,,4,1,0,,,Corruption
15611579,AMR-N,Storage,,24,12,Female,2015,,,4,0,0,,,Corruption
15827771,EUR,Storage,,24,12,Female,2016,,,3,1,1,,,Corruption
15837771,EMR-M,Storage,,24,12,Female,2017,,,3,0,1,,,Corruption
15809722,AMR-S,Storage,,24,12,Female,2018,,,3,2,1,,,Corruption
15813917,SEAR,Storage,,24,12,Female,2014,,,3,1,1,,,Corruption
15837772,EMR-M,Storage,,24,12,Female,2015,,,5,2,1,,,Corruption
15640865,WPR,Storage,,24,12,Female,2016,,,1,0,5,Entry Level Mid Range,1500,Corruption
15646161,EUR,Storage,,24,12,Female,2017,,,0,3,5,Storage Software,1000,Corruption
15657386,EMR,Storage,,24,12,Female,2018,,,4,0,5,Enterprise,1200,Corruption
15837773,EMR,Storage,,24,12,Female,2014,,,2,3,4,Entry Level Mid Range,1500,Corruption
15837775,WPR,Storage,,24,12,Female,2015,,,2,3,5,Storage Software,1000,Scale Factor
15686611,WPR,Storage,,24,12,Female,2016,,,0,1,5,Enterprise,1200,Scale Factor
15578977,SAR,Storage,,24,12,Female,2017,,,4,0,4,Entry Level Mid Range,1500,Scale Factor
15837774,AFR,Storage,,24,12,Female,2018,,,0,1,5,Storage Software,1000,Scale Factor
15685320,AMR-S,Storage,,24,12,Female,2014,,,5,3,4,Enterprise,1200,Scale Factor
15654060,SAR,Storage,,24,12,Female,2015,,,4,0,5,Entry Level Mid Range,1500,Scale Factor
15837776,WPR,Storage,,24,12,Female,2016,,,3,2,5,Storage Software,1000,Scale Factor
15837775,AFR,Storage,,24,12,Female,2017,,,2,1,5,Enterprise,1200,Scale Factor
15686137,AMR-S,Storage,,24,12,Female,2018,,,5,1,5,Entry Level Mid Range,1500,Scale Factor
15725737,WPR,Data Protection,,36,0,Male,2014,,,4,2,1,,,Sensitive Data Protection
15736816,AMR-S,Data Protection,,24,0,Male,2015,,,2,2,1,,,Sensitive Data Protection
15728693,EMR-M,Data Protection,,24,0,Male,2016,,,5,0,1,,,Sensitive Data Protection
15589475,SAR,Data Protection,,36,0,Male,2017,,,4,3,1,,,Sensitive Data Protection
15750181,SAR,Data Protection,,24,0,Male,2018,,,1,0,2,,,Sensitive Data Protection
15788448,AMR-N,Data Protection,,24,0,Male,2018,,,1,1,2,,,Sensitive Data Protection
15738148,EMR,Data Protection,,36,0,Male,2018,,,0,1,2,,,Sensitive Data Protection
15687946,EMR-M,Data Protection,,24,0,Male,2018,,,3,0,2,,,Sensitive Data Protection
15754849,WPR,Data Protection,,24,0,Male,2018,,,2,2,2,,,Sensitive Data Protection
15588670,WPR,Data Protection,,36,0,Male,2018,,,2,2,2,,,Sensitive Data Protection
15762418,WPR,Data Protection,,24,36,Male,2018,,,2,3,2,,,Sensitive Data Protection
15705512,WPR,Data Protection,,24,24,Male,2018,,,4,2,2,,,Sensitive Data Protection
15591607,WPR,Data Protection,,36,24,Male,2018,,,2,3,1,,,Encryption
15712543,AFR,Data Protection,,24,36,Male,2018,,,0,3,1,,,Encryption
15584518,AMR-N,Data Protection,,24,24,Male,2018,,,3,0,1,,,Encryption
15594408,EUR,Data Protection,,36,24,Male,2018,,,1,3,1,,,Encryption
15724944,SAR,Data Protection,,24,36,Male,2018,,,5,1,3,Data Backup & Protection Software,2000,Encryption
15701164,WPR,Data Protection,,24,24,Male,2018,,,0,3,5,Data Management & Analytics,1800,Encryption
15679200,WPR,Data Protection,,36,24,Male,2018,,,2,2,5,Cloud Backup & Protection,1500,Encryption
15568748,AMR-S,Data Protection,,24,36,Male,2018,,,5,0,5,Data Backup & Protection Software,2000,Encryption
15764866,EMR-M,Data Protection,,24,24,Male,2018,,,0,3,4,Data Management & Analytics,1800,Encryption
15813844,EMR-M,Data Protection,,36,24,Male,2017,,,4,2,4,Cloud Backup & Protection,1500,Encryption
15596175,EUR,Data Protection,,24,36,Male,2017,,,3,2,3,Data Backup & Protection Software,2000,Encryption
15771086,WPR,Data Protection,,24,24,Male,2017,,,0,0,3,Data Management & Analytics,1800,Encryption
15772423,AFR,Data Protection,,36,24,Female,2017,,,0,1,5,Cloud Backup & Protection,1500,Encryption
15718779,EMR,Data Protection,,24,36,Female,2017,,,0,2,3,Data Backup & Protection Software,2000,Encryption
15699389,EMR-M,Data Protection,,24,24,Female,2017,,,2,3,3,Data Management & Analytics,1800,Encryption
15797960,EUR,Data Protection,,36,24,Female,2017,,,5,1,4,Cloud Backup & Protection,1500,Encryption
15601848,SAR,Data Protection,,24,36,Female,2017,,,4,2,5,Data Backup & Protection Software,2000,Comprehensive and flexible protection needed
15601274,AFR,Data Protection,,24,24,Female,2017,,,0,0,5,Data Management & Analytics,1800,Comprehensive and flexible protection needed
15702669,AMR-N,Data Protection,,36,24,Female,2017,,,4,1,5,Cloud Backup & Protection,1500,Comprehensive and flexible protection needed
15697441,AMR-N,Data Protection,,24,36,Female,2017,,,4,0,5,Data Backup & Protection Software,2000,Comprehensive and flexible protection needed
15636624,EMR-M,Data Protection,,24,24,Female,2017,,,3,1,5,Data Management & Analytics,1800,Comprehensive and flexible protection needed
15688074,AMR-S,Data Protection,,36,24,Female,2017,,,3,0,3,Cloud Backup & Protection,1500,Comprehensive and flexible protection needed
15583456,SAR,Data Protection,,24,24,Female,2017,,,3,2,5,Data Backup & Protection Software,2000,Comprehensive and flexible protection needed
15810432,EUR,Data Protection,,24,24,Female,2017,,,3,1,4,Data Management & Analytics,1800,Comprehensive and flexible protection needed
15705521,EUR,Data Protection,,36,24,Female,2017,,,5,2,4,Cloud Backup & Protection,1500,Comprehensive and flexible protection needed
15803406,EUR,Data Protection,,24,24,Female,2017,,,1,0,5,Data Backup & Protection Software,2000,Comprehensive and flexible protection needed
15794396,WPR,Data Protection,,24,24,Female,2017,,,0,3,5,Data Management & Analytics,1800,Comprehensive and flexible protection needed
15785798,AFR,Data Protection,,36,24,Female,2017,,,4,0,5,Cloud Backup & Protection,1500,Comprehensive and flexible protection needed
15726631,SAR,Data Protection,,24,24,Female,2017,,,2,3,4,Data Backup & Protection Software,2000,Comprehensive and flexible protection needed
15634632,EUR,Data Protection,,24,24,Female,2016,,,2,3,5,Data Management & Analytics,1800,Comprehensive and flexible protection needed
15624170,AMR-N,Data Protection,,36,24,Female,2016,,,0,1,5,Cloud Backup & Protection,1500,Comprehensive and flexible protection needed
15804256,EMR-M,Data Protection,,24,24,Female,2016,,,4,0,4,Data Backup & Protection Software,2000,Comprehensive and flexible protection needed
15786063,AMR-S,Data Protection,,24,24,Female,2016,,,0,1,5,Data Management & Analytics,1800,Comprehensive and flexible protection needed
15736112,SEAR,Data Protection,,36,12,Female,2016,,,5,3,4,Cloud Backup & Protection,1500,Comprehensive and flexible protection needed
15749851,WPR,Data Protection,,24,24,Female,2016,,,4,0,5,Data Backup & Protection Software,2000,Data Centric Encryption
15567832,EMR-M,Data Protection,,24,24,Female,2016,,,3,2,5,Data Management & Analytics,1800,Data Centric Encryption
15739803,SEAR,Data Protection,,36,12,Female,2016,,,2,1,5,Cloud Backup & Protection,1500,Data Centric Encryption
15800440,EMR,Data Protection,,24,24,Female,2016,,,5,1,5,Data Backup & Protection Software,2000,Data Centric Encryption
15651674,SAR,Data Protection,,24,24,Male,2016,,,4,2,4,Data Management & Analytics,1800,Data Centric Encryption
15689614,WPR,Data Protection,,36,12,Male,2016,,,2,2,5,Cloud Backup & Protection,1500,Data Centric Encryption
15728505,WPR,Data Protection,,24,24,Male,2016,,,5,0,3,Data Backup & Protection Software,2000,Data Centric Encryption
15730076,AFR,Data Protection,,24,24,Male,2016,,,4,3,5,Data Management & Analytics,1800,Data Centric Encryption
15644753,AFR,Data Protection,,36,12,Male,2016,,,1,0,5,Cloud Backup & Protection,1500,Data Centric Encryption
15633922,EMR,Data Protection,,24,24,Male,2016,,,1,1,3,Data Backup & Protection Software,2000,Data Centric Encryption
15788291,EMR,Data Protection,,24,24,Male,2016,,,0,1,5,Data Management & Analytics,1800,Data Centric Encryption
15604044,EMR-M,Data Protection,,36,12,Male,2016,,,3,0,4,Cloud Backup & Protection,1500,Data Centric Encryption
15603925,EMR-M,Data Protection,,24,12,Male,2016,,,2,2,5,Data Backup & Protection Software,2000,Data Centric Encryption
15567446,WPR,Data Protection,,24,24,Male,2015,,,2,2,5,Data Management & Analytics,1800,Data Centric Encryption
15738181,SAR,Data Protection,,36,12,Male,2015,,,2,3,3,Cloud Backup & Protection,1500,Data Centric Encryption
15583725,AMR-S,Data Protection,,24,12,Male,2015,,,4,2,5,Data Backup & Protection Software,2000,Data Centric Encryption
15575024,AMR-N,Data Protection,,24,12,Male,2015,,,2,3,5,Data Management & Analytics,1800,Sensitive Data Protection
15721024,WPR,Data Protection,,36,12,Male,2015,,,0,3,5,Cloud Backup & Protection,1500,Sensitive Data Protection
15745621,SAR,Data Protection,,24,12,Male,2015,,,3,0,3,Data Backup & Protection Software,2000,Sensitive Data Protection
15607040,AFR,Data Protection,,24,12,Male,2015,,,1,3,4,Data Management & Analytics,1800,Sensitive Data Protection
15668886,AFR,Data Protection,,36,12,Female,2015,,,5,1,3,Cloud Backup & Protection,1500,Sensitive Data Protection
15661036,AMR-N,Data Protection,,24,12,Female,2014,,,0,3,5,Data Backup & Protection Software,2000,Sensitive Data Protection
15634245,SAR,Data Protection,,24,12,Female,2014,,,2,2,5,Data Management & Analytics,1800,Sensitive Data Protection
15637979,EMR,Data Protection,,36,12,Female,2014,,,5,0,5,Cloud Backup & Protection,1500,Sensitive Data Protection
15815364,EMR-M,Data Protection,,24,12,Female,2014,,,0,3,4,Data Backup & Protection Software,2000,Sensitive Data Protection
15583212,EMR-M,Data Protection,,24,12,Female,2014,,,4,2,4,Data Management & Analytics,1800,Sensitive Data Protection
15622750,WPR,Data Protection,,36,12,Female,2014,,,3,2,3,Cloud Backup & Protection,1500,Sensitive Data Protection
15756026,WPR,Data Protection,Data Backup & Protection Software,36,12,Female,2014,,,0,0,3,Cloud Backup & Protection,2000,Sensitive Data Protection
15591969,EMR-M,Data Protection,Data Management & Analytics,36,12,Female,2014,,,0,1,5,Cloud Backup & Protection,1800,Sensitive Data Protection
15769948,AMR-S,Networking,,24,0,,2014,,,0,2,1,,,Enhance Network Performnce
15686345,EMR-M,Networking,,24,0,,2015,,,2,3,1,,,Enhance Network Performnce
15681174,SAR,Networking,,24,0,,2016,,,5,1,1,,,Enhance Network Performnce
15695475,SEAR,Networking,,24,0,,2017,,,4,2,1,,,Enhance Network Performnce
15680303,AMR-N,Networking,,24,0,,2018,,,0,0,1,,,Enhance Network Performnce
15633650,SAR,Networking,,24,0,,2014,,,4,1,1,,,Enhance Network Performnce
15589195,SAR,Networking,,24,0,,2015,,,4,0,1,,,Enhance Network Performnce
15646513,AMR-N,Networking,,24,0,,2016,,,3,1,1,,,Enhance Network Performnce
15708063,AMR-N,Networking,,24,36,,2017,,,3,0,1,,,Enhance Network Performnce
15696098,AMR-S,Networking,,24,24,,2018,,,3,2,1,,,Enhance Network Performnce
15649744,EUR,Networking,,24,36,,2014,,,3,1,1,,,Enhance Network Performnce
15604304,EUR,Networking,,24,36,,2015,,,5,2,1,,,Enhance Network Performnce
15585198,SEAR,Networking,,24,24,,2016,,,1,0,2,,,Enhance Network Performnce
15624347,WPR,Networking,,24,36,,2017,,,0,3,2,,,Enhance Network Performnce
15621687,EUR,Networking,,24,36,,2018,,,4,0,2,,,Enhance Network Performnce
15647301,SAR,Networking,,24,24,,2014,,,2,3,2,,,Enhance Network Performnce
15628205,EUR,Networking,,24,36,,2015,,,2,3,2,,,Enhance Network Performnce
15685500,WPR,Networking,,24,36,,2016,,,0,1,2,,,Enhance Network Performnce
15651369,WPR,Networking,,24,24,,2017,,,4,0,2,,,Enhance Network Performnce
15625080,EUR,Networking,,24,36,,2018,,,0,1,2,,,Enhance Network Performnce
15575410,WPR,Networking,,24,36,,2014,,,5,3,2,,,Enhance Network Performnce
15721189,SEAR,Networking,,24,12,,2015,,,4,0,2,,,Limited Connectivity
15814930,WPR,Networking,,24,36,,2016,,,3,2,2,,,Limited Connectivity
15658306,EMR-M,Networking,,24,36,,2017,,,2,1,5,Wireless Networking,900,Limited Connectivity
15615032,SEAR,Networking,,24,12,,2018,,,5,1,5,Network Security,600,Limited Connectivity
15740494,SEAR,Networking,,24,36,,2014,,,4,2,4,Network Management Software,800,Limited Connectivity
15687752,AMR-S,Networking,,24,36,,2015,,,2,2,5,Wireless Networking,900,Limited Connectivity
15803365,AMR-N,Networking,,24,12,,2016,,,5,0,3,Network Security,600,Limited Connectivity
15682773,SEAR,Networking,,24,36,,2017,,,4,3,5,Network Management Software,800,Limited Connectivity
15575417,EMR-M,Networking,,24,36,,2018,,,1,0,5,Wireless Networking,900,Limited Connectivity
15796721,SEAR,Networking,,24,12,,2014,,,1,1,3,Network Security,600,Limited Connectivity
15576683,AMR-S,Networking,,24,36,,2015,,,0,1,5,Network Management Software,800,Limited Connectivity
15612108,AMR-N,Networking,,24,36,,2016,,,3,0,4,Wireless Networking,900,Limited Connectivity
15694409,EMR-M,Networking,,24,12,,2017,,,2,2,5,Network Security,600,Limited Connectivity
15689514,SEAR,Networking,,24,36,,2018,,,2,2,5,Network Management Software,800,Limited Connectivity
15621353,WPR,Networking,,24,36,,2014,,,2,3,3,Wireless Networking,900,Limited Connectivity
15749177,EMR,Networking,,24,12,,2015,,,4,2,5,Network Security,600,Limited Connectivity
15723006,SAR,Networking,,24,36,,2016,,,2,3,5,Network Management Software,800,Slow Internet speed
15600821,EMR-M,Networking,,24,24,,2017,,,0,3,5,Wireless Networking,900,Slow Internet speed
15710164,SEAR,Networking,,24,12,,2018,,,3,0,3,Network Security,600,Slow Internet speed
15796334,SAR,Networking,,24,36,,2014,,,1,3,4,Network Management Software,800,Slow Internet speed
15646302,EUR,Networking,,24,24,,2015,,,5,1,3,Wireless Networking,900,Slow Internet speed
15680855,SAR,Networking,,24,12,,2016,,,0,3,5,Network Security,600,Slow Internet speed
15726556,EMR-M,Networking,,24,24,,2017,,,2,2,5,Network Management Software,800,Slow Internet speed
15774882,SAR,Networking,,24,24,,2018,,,5,0,5,Wireless Networking,900,Slow Internet speed
15744517,EUR,Networking,,24,12,,2014,,,0,3,4,Network Security,600,Slow Internet speed
15677049,SEAR,Networking,,24,24,,2015,,,4,2,4,Network Management Software,800,Slow Internet speed
15590146,AFR,Networking,,24,24,,2016,,,3,2,3,Wireless Networking,900,Slow Internet speed
15801548,AFR,Networking,,24,24,,2017,,,0,0,3,Network Security,600,Slow Internet speed
15660833,AFR,Networking,,24,24,,2018,,,0,1,5,Network Management Software,800,Slow Internet speed
15762277,AMR-N,Networking,,24,24,,2014,,,0,2,3,Wireless Networking,900,Slow Internet speed
15791302,AMR-N,Networking,,24,24,,2015,,,2,3,3,Network Security,600,Slow Internet speed
15798975,AMR-N,Networking,,24,24,,2016,,,5,1,4,Network Management Software,800,Slow Internet speed
15599956,AMR-N,Networking,,24,24,,2017,,,4,2,5,Wireless Networking,900,Deep Level network protection
15577274,AMR-S,Networking,,24,24,,2018,,,0,0,5,Network Security,600,Deep Level network protection
15586974,AMR-S,Networking,,24,24,,2014,,,4,1,5,Network Management Software,800,Deep Level network protection
15729040,AMR-S,Networking,,24,24,,2015,,,4,0,5,Wireless Networking,900,Deep Level network protection
15788676,AMR-S,Networking,,24,24,,2016,,,3,1,5,Network Security,600,Deep Level network protection
15602497,AMR-S,Networking,,24,24,,2017,,,3,0,3,Network Management Software,800,Deep Level network protection
15701333,EMR,Networking,,24,24,,2018,,,3,2,5,Wireless Networking,900,Deep Level network protection
15701333,EMR,Networking,,24,12,,2014,,,3,1,4,Network Security,600,Deep Level network protection
15701333,EMR,Networking,,24,24,,2015,,,5,2,4,Network Management Software,800,Deep Level network protection
15701333,EMR,Networking,,24,24,,2016,,,1,0,5,Wireless Networking,900,Deep Level network protection
15701333,EMR,Networking,,24,12,,2017,,,0,3,5,Network Security,600,Deep Level network protection
15591130,EMR-M,Networking,,24,24,,2018,,,4,0,5,Network Management Software,800,Deep Level network protection
15591130,EMR-M,Networking,,24,24,,2014,,,2,3,4,Wireless Networking,900,Deep Level network protection
15591130,EMR-M,Networking,,24,12,,2015,,,2,3,5,Network Security,,Deep Level network protection
15591130,EMR-M,Networking,,24,12,,2016,,,0,1,5,Network Management Software,800,Deep Level network protection
15781210,EUR,Networking,,24,12,,2017,,,4,0,4,Wireless Networking,900,Deep Level network protection
15715031,EUR,Networking,,24,12,,2018,,,0,1,5,Network Security,,Deep Level network protection
15589660,EUR,Networking,,24,12,,2014,,,5,3,4,Network Management Software,800,Deep Level network protection
15769818,EUR,Networking,,24,12,,2015,,,4,0,5,Wireless Networking,900,Deep Level network protection
15614818,SAR,Networking,,24,12,,2016,,,3,2,5,Network Security,,Deep Level network protection
15794014,SAR,Networking,,24,12,,2017,,,2,1,5,Network Management Software,800,Deep Level network protection
15732448,SAR,Networking,,24,12,,2018,,,5,1,5,Wireless Networking,900,Deep Level network protection
15757811,SEAR,Software,,24,0,,2014,,,4,1,1,,,Computer Freezes
15585036,AFR,Software,,36,12,,2015,,,2,2,1,,,Computer Freezes
15589488,AMR-N,Software,,24,36,,2016,,,5,0,1,,,Computer Freezes
15737792,AFR,Software,,24,0,,2017,,,4,3,1,,,Computer Freezes
15599433,WPR,Software,,36,24,,2018,,,1,0,1,,,Computer Freezes
15672012,AMR-S,Software,,24,24,,2014,,,1,1,1,,,Computer Freezes
15592222,EMR-M,Software,,24,0,,2015,,,0,1,1,Analytics,1200,Computer Freezes
15608968,EUR,Software,,36,24,,2016,,,3,0,2,Enterprise System Mangement,1000,Computer Freezes
15646558,SEAR,Software,,24,24,,2017,,,2,2,2,Visualization Solution,1500,Computer Freezes
15768104,SAR,Software,,24,0,,2018,,,2,2,2,Analytics,1200,Computer Freezes
15792388,SAR,Software,,36,24,,2014,,,2,3,2,Enterprise System Mangement,1000,Computer Freezes
15724848,WPR,Software,,24,24,,2015,,,4,2,2,Visualization Solution,1500,Computer Freezes
15754713,SAR,Software,,24,0,,2016,,,2,3,2,,,Computer keeps restarting
15746490,SEAR,Software,,36,24,,2017,,,0,3,2,,,Computer keeps restarting
15710404,SAR,Software,,24,24,,2018,,,3,0,2,,,Computer keeps restarting
15620981,AFR,Software,,24,12,,2014,,,1,3,2,,,Computer keeps restarting
15606149,EMR,Software,,36,24,,2015,,,5,1,2,Enterprise System Mangement,1000,Computer keeps restarting
15745527,EMR,Software,,24,24,,2016,,,0,3,2,Visualization Solution,1500,Computer keeps restarting
15623521,WPR,Software,,24,12,,2017,,,2,2,2,Analytics,1200,Computer keeps restarting
15810218,SAR,Software,,36,24,,2018,,,5,0,2,Enterprise System Mangement,1000,Computer keeps restarting
15569050,AMR-S,Software,,24,24,,2014,,,0,3,2,Visualization Solution,1500,Computer keeps restarting
15717164,SAR,Software,,24,12,,2015,,,4,2,1,,,Computer keeps restarting
15765014,SEAR,Software,,36,24,,2016,,,3,2,1,,,Computer keeps restarting
15767864,AMR-N,Software,,24,24,,2017,,,0,0,1,,,Computer keeps restarting
15769948,AMR-S,Software,,24,12,,2018,,,0,1,5,Analytics,1200,Computer keeps restarting
15686345,EMR-M,Software,,36,24,,2014,,,0,2,3,Enterprise System Mangement,1000,Computer keeps restarting
15681174,SAR,Software,,24,24,,2015,,,2,3,3,Visualization Solution,1500,Computer is slow
15695475,SEAR,Software,,24,12,,2016,,,5,1,4,Analytics,1200,Computer is slow
15680303,AMR-N,Software,,36,24,,2017,,,4,2,5,Enterprise System Mangement,1000,Computer is slow
15633650,SAR,Software,,24,24,,2018,,,0,0,5,Visualization Solution,1500,Computer is slow
15589195,SAR,Software,,24,12,,2014,,,4,1,5,Analytics,1200,Computer is slow
15646513,AMR-N,Software,,36,24,,2015,,,4,0,5,Enterprise System Mangement,1000,Computer is slow
15708063,AMR-N,Software,,24,24,,2016,,,3,1,5,Visualization Solution,1500,Computer is slow
15696098,AMR-S,Software,,24,12,,2017,,,3,0,3,Analytics,1200,Computer is slow
15649744,EUR,Software,,36,24,,2018,,,3,2,5,Enterprise System Mangement,1000,Computer is slow
15604304,EUR,Software,,24,24,,2014,,,3,1,4,Visualization Solution,1500,Peripherials aren't working properly
15585198,SEAR,Software,,24,12,,2015,,,5,2,4,Analytics,1200,Peripherials aren't working properly
15624347,WPR,Software,,36,24,,2016,,,1,0,5,Enterprise System Mangement,1000,Peripherials aren't working properly
15621687,EUR,Software,,24,24,,2017,,,0,3,5,Visualization Solution,1500,Peripherials aren't working properly
15647301,SAR,Software,,24,12,,2018,,,4,0,5,Analytics,1200,Peripherials aren't working properly
15628205,EUR,Software,,36,24,,2014,,,2,3,4,Enterprise System Mangement,1000,Peripherials aren't working properly
15685500,WPR,Software,,24,24,,2015,,,2,3,5,Visualization Solution,1500,Peripherials aren't working properly
15651369,WPR,Software,,24,12,,2016,,,0,1,5,Analytics,1200,Peripherials aren't working properly
15625080,EUR,Software,,36,12,,2017,,,4,0,4,Enterprise System Mangement,1000,Peripherials aren't working properly
15575410,WPR,Software,,24,24,,2018,,,0,1,5,Visualization Solution,1500,Peripherials aren't working properly
15721189,SEAR,Software,,24,12,,2014,,,5,3,4,Analytics,1200,Peripherials aren't working properly
15814930,WPR,Software,,36,12,,2015,,,4,0,5,Enterprise System Mangement,1000,Peripherials aren't working properly
15658306,EMR-M,Software,,24,24,,2016,,,3,2,5,Visualization Solution,1500,Sudden shut off
15615032,SEAR,Software,,24,12,,2017,,,2,1,5,Analytics,1200,Sudden shut off
15740494,SEAR,Software,,36,12,,2018,,,5,1,5,Enterprise System Mangement,1000,Sudden shut off
15687752,AMR-S,Software,,24,24,,2014,,,4,2,4,Visualization Solution,1500,Sudden shut off
15803365,AMR-N,Software,,24,24,,2015,,,2,2,5,Analytics,1200,Sudden shut off
15682773,SEAR,Software,,36,12,,2016,,,5,0,3,Enterprise System Mangement,1000,Sudden shut off
15575417,EMR-M,Software,,24,36,,2017,,,4,3,5,Visualization Solution,1500,Sudden shut off
15796721,SEAR,Software,,24,24,,2018,,,1,0,5,Analytics,1200,Sudden shut off
15576683,AMR-S,Software,,36,12,,2014,,,1,1,3,Enterprise System Mangement,1000,Sudden shut off
15612108,AMR-N,Software,,24,36,,2015,,,0,1,5,Visualization Solution,1500,Sudden shut off
15694409,EMR-M,Software,,24,24,,2016,,,3,0,4,Analytics,1200,Sudden shut off
15689514,SEAR,Software,,36,12,,2017,,,2,2,5,Enterprise System Mangement,1000,Sudden shut off
15621353,WPR,Software,,24,36,,2018,,,2,2,5,Visualization Solution,1500,Sudden shut off
15749177,EMR,Software,,24,24,,2014,,,2,3,3,Analytics,1200,Sudden shut off
15723006,SAR,Software,,36,24,,2015,,,4,2,5,Enterprise System Mangement,1000,Sudden shut off
15600821,EMR-M,Software,,24,36,,2016,,,2,3,5,Visualization Solution,1500,Sudden shut off
15710164,SEAR,Software,,24,24,,2017,,,0,3,5,Analytics,1200,Sudden shut off
15796334,SAR,Software,,36,12,,2018,,,3,0,3,Enterprise System Mangement,1000,Sudden shut off
15646302,EUR,Software,,24,36,,2014,,,1,3,4,Visualization Solution,1500,Sudden shut off
15680855,SAR,Software,,24,24,,2015,,,5,1,3,Analytics,1200,Sudden shut off
15726556,EMR-M,Software,,36,12,,2016,,,0,3,5,Enterprise System Mangement,1000,Sudden shut off
15774882,SAR,Software,,24,36,,2017,,,2,2,5,Visualization Solution,1500,Sudden shut off
15744517,EUR,Software,,24,24,,2018,,,5,0,5,Analytics,1200,Sudden shut off
15677049,SEAR,Software,,36,12,,2014,,,0,3,4,Enterprise System Mangement,1000,Sudden shut off
15590146,AFR,Software,,24,36,,2015,,,4,2,4,Visualization Solution,1500,Computer Freezes
15801548,AFR,Software,,24,24,,2016,,,3,2,3,Analytics,1200,Computer Freezes
15660833,AFR,Software,,36,12,,2017,,,0,0,3,Enterprise System Mangement,1000,Computer Freezes
15762277,AMR-N,Software,,24,36,,2018,,,0,1,5,Visualization Solution,1500,Computer Freezes
15706815,EUR,Hardisk,1 TB Portable,12,24,Male,2014,400,,0,2,3,EMC Optimize for Storage,600,Daily System Monitoring
15618018,EUR,Hardisk,1 TB Portable,12,24,Male,2015,400,,2,3,3,EMC Optimize for Storage,600,Daily System Monitoring
15671032,SAR,Hardisk,1 TB Portable,12,24,Male,2016,400,,5,1,4,EMC Optimize for Storage,600,Daily System Monitoring
15634281,SAR,Hardisk,1 TB Portable,12,24,Male,2017,400,,4,2,5,EMC Optimize for Storage,600,Daily System Monitoring
15766374,SAR,Hardisk,1 TB Portable,12,24,Male,2018,400,,0,0,5,EMC Optimize for Storage,600,Daily System Monitoring
15600991,SEAR,Hardisk,1 TB Portable,12,24,Male,2014,400,,4,1,5,EMC Optimize for Storage,600,Daily System Monitoring
15777576,SEAR,Hardisk,1 TB Portable,12,24,Male,2015,400,,4,0,5,EMC Optimize for Storage,600,Daily System Monitoring
15742613,SEAR,Hardisk,1 TB Portable,12,24,Male,2016,400,,3,1,5,EMC Optimize for Storage,600,Daily System Monitoring
15649523,SEAR,Hardisk,1 TB Portable,12,24,Male,2017,400,,3,0,3,EMC Optimize for Storage,600,Daily System Monitoring
15683124,WPR,Hardisk,1 TB Portable,12,24,Male,2018,400,,3,2,5,EMC Optimize for Storage,600,Daily System Monitoring
15670823,WPR,Hardisk,Axim X5,24,24,Male,2014,550,,3,1,4,EMC Optimize for Storage,600,Maximize Storage performance
15651063,WPR,Hardisk,Axim X5,24,24,Male,2015,550,,5,2,4,EMC Optimize for Storage,600,Maximize Storage performance
15618314,WPR,Hardisk,Axim X5,24,24,Male,2016,550,,1,0,5,EMC Optimize for Storage,600,Maximize Storage performance
15591607,WPR,Hardisk,Axim X5,24,24,Male,2017,550,,0,3,5,EMC Optimize for Storage,600,Maximize Storage performance
15712543,AFR,Hardisk,Axim X5,24,24,Male,2018,550,,4,0,5,EMC Optimize for Storage,600,Maximize Storage performance
15584518,AMR-N,Hardisk,Axim X5,24,24,Male,2014,550,,2,3,4,EMC Optimize for Storage,600,Maximize Storage performance
15764866,EMR-M,Hardisk,Axim X5,24,24,Male,2015,550,,2,3,5,EMC Optimize for Storage,600,Maximize Storage performance
15813844,EMR-M,Hardisk,Axim X5,24,24,Male,2016,550,,0,1,5,EMC Optimize for Storage,600,Maximize Storage performance
15596175,EUR,Hardisk,Axim X5,24,24,Male,2017,550,,4,0,4,EMC Optimize for Storage,600,Maximize Storage performance
15601848,SAR,Hardisk,Axim X5,24,24,Male,2018,550,,0,1,5,EMC Optimize for Storage,600,Maximize Storage performance
15601274,AFR,Hardisk,Axim X5,24,24,Male,2014,550,,5,3,4,EMC Optimize for Storage,600,Maximize Storage performance
15702669,AMR-N,Hardisk,Axim X5,24,24,Male,2015,550,,4,0,5,EMC Optimize for Storage,600,Maximize Storage performance
15803406,EUR,Hardisk,Axim X5,24,24,Male,2016,550,,3,2,5,EMC Optimize for Storage,600,Maximize Storage performance
15794396,WPR,Hardisk,Axim X5,24,24,Male,2017,550,,2,1,5,Post Standard Support,500,24X7 Remote monitoring
15785798,AFR,Hardisk,Axim X5,24,24,Male,2018,550,,5,1,5,Post Standard Support,500,24X7 Remote monitoring
15786063,AMR-S,Hardisk,Axim X5,24,24,Male,2014,550,,3,1,5,Post Standard Support,500,24X7 Remote monitoring
15736112,SEAR,Hardisk,Axim X5,24,24,Male,2015,550,,1,2,5,Post Standard Support,500,24X7 Remote monitoring
15749851,WPR,Hardisk,Axim X5,24,24,Male,2016,550,,0,0,5,Post Standard Support,500,24X7 Remote monitoring
15800440,EMR,Hardisk,Axim X5,24,24,Male,2017,550,,2,2,3,Post Standard Support,500,24X7 Remote monitoring
15651674,SAR,Hardisk,Axim X5,24,24,Male,2018,550,,0,3,3,Post Standard Support,500,24X7 Remote monitoring
15689614,WPR,Hardisk,Axim X5,24,24,Male,2014,550,,5,1,5,Post Standard Support,500,24X7 Remote monitoring
15728505,WPR,Hardisk,Axim X5,24,24,Female,2015,550,,5,1,3,Post Standard Support,500,Hardware Replacement parts needed
15730076,AFR,Hardisk,Axim X5,24,24,Female,2016,550,,0,3,5,Post Standard Support,500,Hardware Replacement parts needed
15788291,EMR,Hardisk,Axim X5,24,24,Female,2017,550,,0,0,4,Post Standard Support,500,Hardware Replacement parts needed
15604044,EMR-M,Hardisk,Axim X5,24,24,Female,2018,550,,3,3,3,Post Standard Support,500,Hardware Replacement parts needed
15575024,AMR-N,Hardisk,Axim X5,24,24,Female,2014,550,,4,2,5,Post Standard Support,500,Hardware Replacement parts needed
15721024,WPR,Hardisk,Axim X5,24,24,Female,2015,550,,3,1,4,Post Standard Support,500,Hardware Replacement parts needed
15745621,SAR,Hardisk,Axim X5,24,24,Female,2016,550,,5,2,5,Post Standard Support,500,Hardware Replacement parts needed
15634245,SAR,Hardisk,Axim X5,24,24,Female,2017,550,,3,1,1,,500,
15637979,EMR,Hardisk,Axim X5,24,24,Female,2018,550,,1,2,5,Post Standard Support,500,Hardware Replacement parts needed
15815364,EMR-M,Hardisk,Axim X50,24,24,Female,2014,600,,0,0,4,Post Standard Support,500,Hardware Replacement parts needed
15591969,EMR-M,Hardisk,Axim X50,24,24,Female,2015,600,,0,0,4,Post Standard Support,500,24x7 Online support needed
15757811,SEAR,Hardisk,Axim X50,24,24,Female,2016,600,,4,1,5,Post Standard Support,500,24x7 Online support needed
15585036,AFR,Hardisk,Axim X50,24,24,Female,2017,600,,0,3,1,,500,
15589488,AMR-N,Hardisk,Axim X50,24,24,Female,2018,600,,4,0,5,Post Standard Support,500,24x7 Online support needed
15737792,AFR,Hardisk,Axim X50,24,24,Female,2014,600,,0,2,2,Post Standard Support,500,24x7 Online support needed
15599433,WPR,Hardisk,Axim X50,24,24,Female,2015,600,,0,3,5,Post Standard Support,500,24x7 Online support needed
15672012,AMR-S,Hardisk,Axim X50,24,24,Female,2016,600,,0,3,5,Post Standard Support,500,24x7 Online support needed
15608968,EUR,Hardisk,Axim X50,24,24,Female,2017,600,,1,2,5,Post Standard Support,500,24x7 Online support needed
15792388,SAR,Hardisk,Axim X50,24,24,Female,2018,600,,4,1,4,Post Standard Support,500,24x7 Online support needed
15724848,WPR,Hardisk,Axim X50,24,24,Female,2014,600,,2,1,5,Post Standard Support,500,24x7 Online support needed
15754713,SAR,Hardisk,Axim X50,24,24,Female,2015,600,,3,2,5,EMC ProSupport for Software,800,accidental damage repair
15717164,SAR,Hardisk,Axim X50,24,24,Female,2016,600,,0,0,5,EMC ProSupport for Software,800,accidental damage repair
15765014,SEAR,Hardisk,Axim X50,24,24,Female,2017,600,,0,0,4,EMC ProSupport for Software,800,accidental damage repair
15767864,AMR-N,Hardisk,Axim X50,24,24,Female,2018,600,,4,1,5,EMC ProSupport for Software,800,accidental damage repair
15769948,AMR-S,Hardisk,Axim X50,24,24,Female,2014,600,,0,3,5,EMC ProSupport for Software,800,accidental damage repair
15686345,EMR-M,Hardisk,Axim X50,24,36,Female,2015,600,,4,0,4,EMC ProSupport for Software,800,accidental damage repair
15633650,SAR,Hardisk,Axim X50,24,36,Female,2016,600,,0,2,4,EMC ProSupport for Software,800,accidental damage repair
15589195,SAR,Hardisk,Axim X50,24,36,Female,2017,600,,0,3,4,EMC ProSupport for Software,800,accidental damage repair
15646513,AMR-N,Hardisk,Axim X50,24,36,Female,2018,600,,0,3,5,EMC ProSupport for Software,800,Hardware Critical Issue
15708063,AMR-N,Hardisk,Axim X3,24,36,Female,2014,500,,1,2,5,EMC ProSupport for Software,800,Hardware Critical Issue
15696098,AMR-S,Hardisk,Axim X3,24,36,Male,2015,500,,4,1,2,EMC ProSupport for Software,800,Hardware Critical Issue
15604304,EUR,Hardisk,Axim X3,24,36,Male,2016,500,,2,1,5,EMC ProSupport for Software,800,Hardware Critical Issue
15721189,SEAR,Hardisk,Axim X3,24,36,Male,2017,500,,3,2,5,EMC ProSupport for Software,800,Hardware Critical Issue
15814930,WPR,Hardisk,Axim X3,24,36,Male,2018,500,,0,0,5,EMC ProSupport for Software,800,Hardware Critical Issue
15658306,EMR-M,Hardisk,Axim X3,24,36,Male,2014,500,,0,1,5,EMC ProSupport for Software,800,Hardware Critical Issue
15682773,SEAR,Hardisk,Axim X3,24,36,Male,2015,500,,1,1,2,EMC ProSupport for Software,800,Hardware Critical Issue
15575417,EMR-M,Hardisk,Axim X3,24,36,Male,2016,500,,4,0,5,EMC ProSupport for Software,800,Hardware Critical Issue
15796721,SEAR,Hardisk,Axim X3,24,36,Male,2017,500,,3,1,3,EMC ProSupport for Software,800,Hardware Critical Issue
15694409,EMR-M,Hardisk,Axim X3,24,36,Male,2018,500,,3,2,4,EMC ProSupport for Software,800,Hardware Critical Issue
15689514,SEAR,Hardisk,Axim X3,24,36,Male,2014,500,,5,3,3,EMC ProSupport for Software,800,Software Critical Issue
15621353,WPR,Hardisk,Axim X3,24,36,Male,2015,500,,0,2,4,EMC ProSupport for Software,800,Software Critical Issue
15796334,SAR,Hardisk,Axim X3,24,36,Male,2016,500,,1,3,4,EMC ProSupport for Software,800,Software Critical Issue
15646302,EUR,Hardisk,Axim X3,24,36,Male,2017,500,,0,1,2,EMC ProSupport for Software,800,Software Critical Issue
15680855,SAR,Hardisk,Axim X3,24,36,Male,2018,500,,1,3,1,,,
